<?xml version="1.0" encoding="UTF-8" standalone="no"?>
<svg xmlns="http://www.w3.org/2000/svg" width="20.0mm" height="20.0mm" viewBox="0 0 2.0 2.0" version="1.1">
<path style="fill:#cccc00;stroke:#fff;stroke-width:0.1;stroke-linejoin:miter" d="M 1.00,0.117 0.723,0.705 0.104,0.800 0.55,1.26 0.446,1.90 1,1.60 l 0.55,0.31 -0.1,-0.65 0.44,-0.455 -0.62,-0.1 z"/></svg>
