<?xml version="1.0" encoding="UTF-8" standalone="no"?>
<svg
xmlns:svg="http://www.w3.org/2000/svg"
xmlns="http://www.w3.org/2000/svg"
version="1.1"
viewBox="0 0 740.76 708.39"
id="svg69"
width="36"
height="36"
>
<defs
id="defs23">
<filter
id="f1"
width="1.2343"
y="-.13548"
x="-.11716"
height="1.271"
color-interpolation-filters="sRGB">
<feGaussianBlur
stdDeviation="9.7319538"
id="feGaussianBlur2" />
</filter>
<radialGradient
id="g1"
gradientUnits="userSpaceOnUse"
cy="1027.7"
cx="-297.84"
gradientTransform="matrix(.66095 -.084587 .072013 .56270 171.23 -1744.8)"
r="251.32" />
<linearGradient
id="g2">
<stop
stop-color="#F00"
offset="0"
id="stop6" />
<stop
stop-color="#F00"
stop-opacity="0"
offset="1"
id="stop8" />
</linearGradient>
<filter
id="f2"
color-interpolation-filters="sRGB">
<feGaussianBlur
stdDeviation="10.015938"
id="feGaussianBlur11" />
</filter>
<radialGradient
id="g3"
gradientUnits="userSpaceOnUse"
cy="1027.7"
cx="-297.84"
gradientTransform="matrix(.66095 -.084587 .072013 .56270 167.08 -1744.8)"
r="251.32" />
<linearGradient
id="g4"
x1="157.19"
gradientUnits="userSpaceOnUse"
y1="101"
gradientTransform="matrix(-.85609 .23092 -.47194 -.41888 178.03 -1093.6)"
x2="151.48"
y2="128.89" />
<linearGradient
id="g5">
<stop
stop-color="#FFF"
offset="0"
id="stop16" />
<stop
stop-color="#FFF"
stop-opacity="0"
offset="1"
id="stop18" />
</linearGradient>
<linearGradient
id="g6"
x1="157.19"
gradientUnits="userSpaceOnUse"
y1="101"
gradientTransform="matrix(-.85609 .23092 -.47194 -.41888 261.85 -1099.8)"
x2="151.48"
y2="128.89" />
<linearGradient
id="g7"
x1="240.85"
gradientUnits="userSpaceOnUse"
y1="-35.273"
gradientTransform="matrix(1.7177 0 0 1.7177 -255.84 -1345.2)"
x2="178.74"
y2="205.58" />
</defs>
<g
transform="translate(-9.7177,-22.365)"
id="g65">
<g
transform="matrix(2.3498,0,0,2.3498,292.04,2938.4)"
id="g63">
<path
d="m 259.87,144.73 c 0,47.607 -38.877,86.2 -86.833,86.2 -47.957,0 -86.833,-38.593 -86.833,-86.2 0,-47.607 38.877,-86.2 86.833,-86.2 47.957,0 86.833,38.593 86.833,86.2 z"
transform="matrix(1.3024,0,-0.26814,0.28467,-134.85,-1018.3)"
id="path25"
style="opacity:0.76999996;filter:url(#f1)" />
<path
d="m 177.97,-1095 c 0,75.117 -61.342,136.01 -137.01,136.01 -75.669,0 -137.01,-60.894 -137.01,-136.01 0,-75.117 61.342,-136.01 137.01,-136.01 75.669,0 137.01,60.894 137.01,136.01 z"
id="path27"
style="fill:#800000" />
<path
d="m 180.73,-1095 c 0,75.117 -61.342,136.01 -137.01,136.01 -75.669,0 -137.01,-60.894 -137.01,-136.01 0,-75.117 61.342,-136.01 137.01,-136.01 75.669,0 137.01,60.894 137.01,136.01 z"
id="path29"
style="fill:url(#g1)" />
<path
d="m -328.41,233.72 z m 0,0 c -73.616,18.458 -137.46,72.67 -166.19,143.09 -28.376,66.802 -24.561,146.75 11,210.25 34.527,63.934 98.89,110.76 170.41,123.56 71.41,13.761 148.29,-5.5621 203.95,-52.582 50.759,-41.847 83.795,-105.02 87.805,-170.82 1.7548,-25.83 -0.68107,-51.881 -7.1005,-76.879 14.473,67.312 -3.0454,140.49 -46.656,193.62 -41.235,51.728 -105.3,84.875 -171.71,87.818 -64.77,3.5909 -130.55,-20.397 -176.95,-65.704 -47.713,-45.689 -74.942,-112.32 -71.52,-178.71 2.882,-73.418 43.005,-143.78 104.18,-184.06 19.31,-12.828 40.577,-22.869 62.781,-29.594 z"
transform="matrix(0.54,0,0,0.54243,184.98,-1346.7)"
id="path31"
style="filter:url(#f2)" />
<path
d="m 176.58,-1095 c 0,75.117 -61.342,136.01 -137.01,136.01 -75.669,0 -137.01,-60.894 -137.01,-136.01 0,-75.117 61.342,-136.01 137.01,-136.01 75.669,0 137.01,60.894 137.01,136.01 z"
id="path33"
style="fill:url(#g3)" />
<g
transform="matrix(1.2387,0,0,-1.2387,64.78,-554.77)"
id="g41">
<path
d="m -57.25,375.91 c -5.830314,3.61961 -3.5878,4.7721 -1.333405,8.6667 4.174296,8.96651 9.705399,16.34681 16.942399,21.94581 6.2949,4.8466 15.988406,6.5161 23.797406,6.0973 9.0290995,-0.45473 18.02799955,-3.5117 24.6199995,-9.7874 C 17.975315,394.4871 23.116413,387.0694 27.338105,380.2017 c 0.64461,-1.2077 -1.575035,-3.6698 -3.083205,-3.2491 -1.9684,0.27478 -2.6362,2.4623 -3.881,3.7228 -6.2886,7.6884 -12.5016015,12.33399 -20.59460146,18.27299 -4.97850004,3.4899 -8.89939124,5.3125 -16.03619554,6.2456 -6.3519,0.36896 -13.262301,-0.98977 -18.956301,-4.1415 -5.5577,-3.0988 -10.434905,-8.4278 -13.382105,-13.8907 -2.7499,-4.9678 -4.463697,-6.71229 -8.124697,-11.10029 v 0 z"
id="path35" />
<path
d="m -54.203,373.77 c -1.9632,2.5261 -4.1149,4.9338 -6.6348,6.9121 -0.46864,0.27686 -0.93729,0.55371 -1.4059,0.83057 -3.1131,1.7786 -5.6285,-2.624 -2.5154,-4.4027 l 0.82879,-0.44621 c 2.1974,-1.6403 3.9547,-3.8167 5.6709,-5.9362 2.1513,-2.8683 6.2077,0.17399 4.0564,3.0423 z"
id="path37" />
<path
d="m 23.949,374.26 c 2.0425,1.6029 3.7252,3.6412 5.8741,5.1057 0.3336,0.25739 0.6672,0.51477 1.0008,0.77215 2.8341,2.1962 -0.27178,6.2042 -3.1059,4.008 -0.27111,-0.21122 -0.54222,-0.42244 -0.81334,-0.63366 -2.3507,-1.6887 -4.3259,-3.8098 -6.5411,-5.6668 -2.5353,-2.5353 1.0501,-6.1207 3.5854,-3.5854 z"
id="path39" />
</g>
<path
d="m 108.9,-1164.9 c -3.6852,-1.2929 -7.4186,-2.4934 -11.07,-3.9068 -3.4444,-1.6084 -7.1422,-2.0692 -10.594,-3.4906 -3.1426,-1.1433 -6.1362,-2.5749 -9.1974,-3.8944 -1.5094,-0.8062 -3.0956,-1.4803 -4.6922,-2.1499 -5.2252,-2.1646 -6.9616,1.6218 -1.7364,3.7864 1.5463,0.6276 3.0333,1.326 4.5094,2.0728 3.2353,1.3833 6.401,2.8996 9.7188,4.1071 3.5499,1.3302 7.1214,2.062 10.649,3.5115 4.2308,1.6034 8.5252,3.078 12.807,4.454 5.3603,1.3317 4.966,-3.1584 -0.39426,-4.4901 z"
id="path43"/>
<path
d="m -23.021,-1170.3 c 3.8635,0.5702 7.7268,1.2446 11.616,1.6924 3.7972,0.179 7.2848,1.4916 11.002,1.8396 3.3137,0.4502 6.6296,0.5759 9.9532,0.8322 1.7112,-0.011 3.4288,0.13 5.1537,0.2802 5.6323,0.5152 5.4076,4.6746 -0.22479,4.1595 -1.6607,-0.164 -3.3019,-0.2377 -4.9559,-0.2634 -3.5074,-0.2809 -7.015,-0.4116 -10.514,-0.8865 -3.7612,-0.4742 -7.2631,-1.4882 -11.06,-1.8464 -4.491,-0.5493 -8.9784,-1.2421 -13.409,-2.0166 -5.3643,-1.3152 -2.9262,-5.1063 2.4382,-3.791 z"
id="path45"/>
<path
d="m 25.543,-1127.3 c 0,17.674 -14.925,32.002 -33.336,32.002 -18.411,0 -33.336,-14.328 -33.336,-32.002 0,-17.674 14.925,-32.003 33.336,-32.003 18.411,0 33.336,14.328 33.336,32.003 z"
id="path47"
style="fill:#f9f9f9" />
<path
d="m 13.969,-1120.2 c 0,11.169 -8.6771,20.223 -19.381,20.223 -10.7039,0 -19.381,-9.0543 -19.381,-20.223 0,-11.1687 8.6771,-20.223 19.381,-20.223 10.7039,0 19.381,9.0543 19.381,20.223 z"
id="path49"/>
<path
d="m 0.71382,-1104 c 4.0804,-1.2388 6.1461,-3.8109 5.15,-6.0487 -7.9574,-0.4958 -16.142,0.8934 -23.482,1.7597 1.2081,3.8818 11.44,6.5947 18.332,4.289 z"
id="path51"
style="fill:url(#g4)" />
<path
d="m 113.04,-1130.6 c 0,17.674 -14.925,32.002 -33.336,32.002 -18.411,0 -33.336,-14.328 -33.336,-32.002 0,-17.674 14.925,-32.003 33.336,-32.003 18.411,0 33.336,14.328 33.336,32.003 z"
id="path53"
style="fill:#f9f9f9" />
<path
d="m 97.787,-1126.5 c 0,11.169 -8.677,20.223 -19.381,20.223 -10.704,0 -19.381,-9.0543 -19.381,-20.223 0,-11.1687 8.6771,-20.223 19.381,-20.223 10.7039,0 19.381,9.0543 19.381,20.223 z"
id="path55" />
<path
d="m 84.532,-1110.3 c 4.0804,-1.2388 6.1461,-3.8109 5.15,-6.0487 -7.9574,-0.4958 -16.142,0.8934 -23.482,1.7597 1.2081,3.8818 11.44,6.5947 18.332,4.289 z"
id="path57"
style="fill:url(#g6)" />
<path
d="m 41.328,-1222.7 c -29.155,0.2864 -61.471,8.9545 -81.108,31.241 19.603,72.439 113.06,114.29 179.39,77.243 8.3706,-4.7516 19.58,-9.5299 24.316,-17.231 -14.77,-52.906 -67.401,-92.822 -122.6,-91.254 z"
id="path59"
style="fill:url(#g7)" />
<path
d="m 41.328,-1222.7 c -29.155,0.2864 -61.471,8.9545 -81.108,31.241 19.603,72.439 113.06,114.29 179.39,77.243 8.3706,-4.7516 19.58,-9.5299 24.316,-17.231 -14.77,-52.906 -67.401,-92.822 -122.6,-91.254 z"
id="path61"
style="fill:url(#g7)" />
</g>
</g>
</svg>
