<?xml version="1.0"?>
<svg xmlns:rdf="http://www.w3.org/1999/02/22-rdf-syntax-ns#" xmlns="http://www.w3.org/2000/svg" xmlns:cc="http://creativecommons.org/ns#" xmlns:xlink="http://www.w3.org/1999/xlink" xmlns:dc="http://purl.org/dc/elements/1.1/" xmlns:svg="http://www.w3.org/2000/svg" id="svg2" viewBox="0 0 1052.4 744.09" version="1.1"
width="51"
height="36"
>
<defs id="defs4">
<linearGradient id="linearGradient4218">
<stop id="stop4220" stop-color="#ceaa50" offset="0"/>
<stop id="stop4222" stop-color="#ceaa50" stop-opacity="0" offset="1"/>
</linearGradient>
<filter id="filter3843" width="1" y="0" x="0" height="1" color-interpolation-filters="sRGB">
<feConvolveMatrix id="feConvolveMatrix3845" kernelMatrix="1 1 1 0 0 0 -1 -1 -1" preserveAlpha="false" order="3 3" divisor="3"/>
<feMorphology id="feMorphology3847" operator="dilate" radius="1 7.2"/>
<feGaussianBlur id="feGaussianBlur3849" stdDeviation="1.6270889487870621" result="result0"/>
<feColorMatrix id="feColorMatrix3851" values="0 0 0 0 0 0 0 0 0 0 0 0 0 0 0 0 0 0 10 0" result="result1"/>
<feOffset id="feOffset3853" dy="1" dx="0" result="result5"/>
<feDiffuseLighting id="feDiffuseLighting3855" result="result6" surfaceScale="1" in="result0" diffuseConstant="2.26130652">
<feDistantLight id="feDistantLight3857" elevation="32" azimuth="225"/>
</feDiffuseLighting>
<feComposite id="feComposite3859" operator="in" in2="result1" result="result2"/>
<feColorMatrix id="feColorMatrix3861" values="0.4 0 0 0 0.6 0 0.4 0 0 0.6 0 0 0 0 1 0 0 0 1 0" result="result4"/>
<feComposite id="feComposite3863" in="result4" in2="result5" result="result7"/>
<feComposite id="feComposite3865" in2="SourceGraphic" result="fbSourceGraphic"/>
<feColorMatrix id="feColorMatrix3912" in="fbSourceGraphic" values="0 0 0 -1 0 0 0 0 -1 0 0 0 0 -1 0 0 0 0 1 0" result="fbSourceGraphicAlpha"/>
<feTurbulence id="feTurbulence3914" baseFrequency="1" seed="0" result="result0" numOctaves="3" type="fractalNoise"/>
<feColorMatrix id="feColorMatrix3916" type="saturate" values="0" result="result4"/>
<feComposite id="feComposite3918" in="fbSourceGraphic" in2="result4" k3="0.5" k2="0.5" k1="1.25" result="result2" k4="0" operator="arithmetic"/>
<feBlend id="feBlend3920" mode="normal" in="result2" in2="fbSourceGraphic" result="result5"/>
<feComposite id="feComposite3922" operator="in" in="result5" in2="fbSourceGraphic" result="result3"/>
</filter>
<filter id="filter3924" width="1" y="0" x="0" height="1" color-interpolation-filters="sRGB">
<feTurbulence id="feTurbulence3926" baseFrequency="1" seed="0" result="result0" numOctaves="3" type="fractalNoise"/>
<feColorMatrix id="feColorMatrix3928" type="saturate" values="0" result="result4"/>
<feComposite id="feComposite3930" in="SourceGraphic" in2="result4" k3="0.5" k2="0.5" k1="1.25" result="result2" k4="0" operator="arithmetic"/>
<feBlend id="feBlend3932" mode="normal" in="result2" in2="SourceGraphic" result="result5"/>
<feComposite id="feComposite3934" operator="in" in="result5" in2="SourceGraphic" result="result3"/>
</filter>
<radialGradient id="radialGradient4427" gradientUnits="userSpaceOnUse" cy="-511.98" cx="-441.84" gradientTransform="matrix(.011279 .30247 -.66426 .024769 -620.82 245.83)" r="1e3">
<stop id="stop4121" stop-color="#729fcf" offset="0"/>
<stop id="stop4123" stop-color="#729fcf" stop-opacity="0" offset="1"/>
</radialGradient>
<radialGradient id="radialGradient4429" xlink:href="#linearGradient4218" gradientUnits="userSpaceOnUse" cy="392.16" cx="-1052" gradientTransform="matrix(1.088 .28326 -.019216 .48395 98.905 551.2)" r="174.29"/>
<radialGradient id="radialGradient4433" xlink:href="#linearGradient4218" gradientUnits="userSpaceOnUse" cy="440.51" cx="-1052.2" gradientTransform="matrix(.97241 .0066113 .011746 .49284 -34.873 256.68)" r="174.29"/>
<radialGradient id="radialGradient4437" gradientUnits="userSpaceOnUse" cy="379.51" cx="-893.9" gradientTransform="matrix(1 0 0 .42955 0 216.49)" r="285.33">
<stop id="stop4405" stop-color="#e9c86e" offset="0"/>
<stop id="stop4407" stop-color="#e9c86e" stop-opacity="0" offset="1"/>
</radialGradient>
</defs>
<g id="layer1" transform="translate(0 -308.27)">
<g id="g4411" transform="matrix(.60813 0 0 .60813 753.58 416.97)">
<g id="g4290" transform="matrix(.75543 0 0 .79865 -207.55 37.713)">
<path id="rect3867" stroke-width="0" fill-rule="evenodd" fill="#3465a4" d="m-1301.1-139.07h2149.1v1300.9h-2149.1c0-440.97-0.0002-859.95-0.0002-1300.9z"/>
<path id="rect3869" d="m-567.07 257.08c107.27 8.6987 280.46-16.486 387.73-7.7869l1027.1 711.79-5.1608 205.33-2142-5.8011 6.1865-212.67z" fill-rule="evenodd" filter="url(#filter3924)" stroke-width="0" fill="#2e3436"/>
<path id="path3872" stroke-width="0" fill-rule="evenodd" fill="#d9bb52" d="m-344.19 214.4-956.95 730.56v-697.62z"/>
<path id="path3875" d="m-860 223.79 117.14 97.14 225.72-197.14 282.85 122.86 177.15-54.29 265.71 128.57 234.29-71.42 387.81 162.85-2115.3-25.29 424.6-163.28" transform="matrix(1.0023 0 0 1 -5.6477 -133.71)" filter="url(#filter3843)" stroke-width="0" fill="#eeeeec"/>
<path id="path3879" stroke="#fff" stroke-width="11.062" fill="#eeeeec" d="m-1333.8 1120.4 981.84-876.08"/>
<path id="path3883" stroke="#fff" stroke-width="11.669" fill="#eeeeec" d="m851.18 1111.1-1079.5-863.15"/>
<path id="path3887" d="m-563.57 1133.4 338-1049.5" stroke="#ffdc49" stroke-dasharray="60.29300136, 60.29300136" stroke-width="10.049" fill="#fce94f"/>
<path id="path2985" d="m-860 223.79 145.65 5.7143 197.21-105.71 294.26 77.143 165.74-8.5714l222.95 102.86 302.7-48.57 362.16 165.71-2115.3-25.29 424.6-163.28" transform="matrix(1.0023 0 0 1 -19.648 -127.71)" filter="url(#filter3843)" stroke-width="0" fill="#555753"/>
<path id="path3877" stroke-width="0" fill-rule="evenodd" fill="#d4b958" d="m-179.59 274.4 1027.6 704.85v-697.62z"/>
<path id="rect4091" stroke-width="0" fill-rule="evenodd" fill="url(#radialGradient4427)" d="m-1251.8 183.79c675.92 27.831 1336.2 35.401 1989.2 0 11.584 28.202 2.5046 63.981 5.3899 95.318-2.728 25.924 5.965 56.16-5.3899 78.967-706.22-77.929-1381.6-104-1989.2 0-11.584-28.202-2.5045-63.981-5.3898-95.318 2.7458-25.69-5.9882-56.506 5.3898-78.967z"/>
<path id="path4232" d="m-880 492.36c0 78.898-78.03 142.86-174.29 142.86-96.255 0-174.29-63.959-174.29-142.86 0-78.898 78.03-142.86 174.29-142.86 96.255 0 174.29 63.959 174.29 142.86z" fill-rule="evenodd" transform="matrix(-2.3282 -1.9817 -.80222 1.2308 -1638.8 -1991.7)" stroke-width="0" fill="url(#radialGradient4429)"/>
<path id="path4192" d="m-880 492.36c0 78.898-78.03 142.86-174.29 142.86-96.255 0-174.29-63.959-174.29-142.86 0-78.898 78.03-142.86 174.29-142.86 96.255 0 174.29 63.959 174.29 142.86z" fill-rule="evenodd" transform="matrix(2.3282 -1.9817 .80222 1.2308 1169.1 -2083.2)" stroke-width="0" fill="url(#radialGradient4433)"/>
</g>
<path id="path4314" stroke-width="0" fill-rule="evenodd" fill="url(#radialGradient4437)" d="m-608.57 288.51c-189.91 71.186-379.83 142.37-569.74 213.56-4.0667-137.99 6.9016-107.14 2.8348-245.12 193.98 66.8 372.92-35.233 566.9 31.567z"/>
</g>
</g>
</svg>
