<?xml version="1.0" encoding="UTF-8" standalone="no"?>
<svg
id="svg31454"
viewBox="0 0 32 32"
version="1.1"
width="32"
height="32"
xmlns:xlink="http://www.w3.org/1999/xlink"
xmlns="http://www.w3.org/2000/svg"
xmlns:svg="http://www.w3.org/2000/svg">
<defs>
<linearGradient
id="linearGradient4641"
x1="824.8"
gradientUnits="userSpaceOnUse"
y1="877.5"
gradientTransform="matrix(0.5555,-0.0216,0.0127,0.5803,44.12,-295.4)"
x2="814"
y2="881.9">
<stop
stop-color="#97bf0f"
offset="0" />
<stop
stop-color="#97bf0f"
stop-opacity="0"
offset="1" />
</linearGradient>
<linearGradient
xlink:href="#linearGradient4641"
id="linearGradient2415"
gradientUnits="userSpaceOnUse"
gradientTransform="matrix(-0.7503,0.5654,-0.5654,-0.7503,1144,363.4)"
x1="828.1"
y1="403.4"
x2="631.5"
y2="518.5" />
<linearGradient
xlink:href="#linearGradient4641"
id="linearGradient30612"
gradientUnits="userSpaceOnUse"
gradientTransform="matrix(0.7503,0.5654,0.5654,-0.7503,-646.2,363.4)"
x1="828.1"
y1="403.4"
x2="631.5"
y2="518.5" />
<linearGradient
id="linearGradient35668"
gradientUnits="userSpaceOnUse"
gradientTransform="matrix(0.5555,-0.0216,0.0127,0.5803,44.12,-295.4)"
x1="824.8"
y1="877.5"
x2="814"
y2="881.9" />
</defs>
<g
transform="matrix(0.0627,0,0,0.0627,-3.946,-16.83)">
<path
fill="#1e3621"
d="m 278.1,600.7 c 29,-8.8 -8.1,-39 73.9,-94.1 12.7,-11 19.7,-20.8 28.9,-35.5 4.2,-6.9 7.3,-19.9 12.1,-26.8 18.9,-14 20.9,-28.2 31.9,-46.7 3.3,-5.2 5.5,-4.1 6.6,-8.2 2.9,-18 -7.3,-18.6 -11.6,-25.1 -3,-5 0,-18.2 -6,-26.2 -18.1,-17.5 -34.8,-21.7 -55.9,-18.5 -38.5,11 -78.8,26 -95,63.6 -0.6,17.6 -4.7,23.4 -9.2,29.5 -3.3,5.5 -2.7,21.4 -3.4,30.8 -0.7,9.5 -1.2,24.5 -1.4,32.6 -4.2,24.1 8.2,43.8 14.6,56.6 6.2,12.5 -48.4,69.8 14.5,68 z"
style="fill:#1e3621;fill-opacity:1;stroke-width:0.939482" />
<path
d="M 348.5,501.9 C 372,467.2 405,433.1 420.5,395.7 392.7,318.9 296.2,327 267.8,390 c -4.7,41.3 -21.2,72 -12.9,110 52.4,18.6 27.2,48.2 93.6,1.9 z"
style="fill:url(#linearGradient2415);fill-opacity:1;stroke-width:0.939482"/>
<path
fill="#1e3621"
d="m 132.4,489.7 c -15.1,-11.8 -18.3,-32.1 -27.1,-45.4 -4.8,-7 -13.86,-12 -18.75,-19.1 -4.94,-7 -9.85,-22.3 -13.14,-27.6 -3.28,-5.2 -5.54,-4.1 -6.66,-8.2 -1.06,-4.2 0.77,-14.2 2.98,-18 15.93,-7.4 7.62,-23.1 14.64,-33.3 18.13,-17.3 34.83,-21.8 55.93,-18.5 28.3,4.1 52.6,17.6 75.3,35 18.6,22.4 21.1,47.5 28.9,58.1 3.3,5.5 2.7,21.4 3.4,30.8 0.7,9.5 1.2,24.5 1.4,32.6 -5.7,111 -93.3,67.9 -116.9,13.6 z"
style="stroke-width:0.939482" />
<path
d="m 112.7,445.4 c -13.16,-13.2 -27.88,-32 -34.93,-49.7 3.46,-15.5 9.67,-36.3 16,-46.6 34.63,-26.1 69.53,-16.9 101.73,2.9 31.8,13.8 28,42.8 43.3,64.8 2.5,20 7,74.5 4.6,83.2 -76,52.6 -89.2,10.4 -130.7,-54.6 z"
style="fill:url(#linearGradient30612);fill-opacity:1;stroke-width:0.9336;stroke-miterlimit:4;stroke-dasharray:none" />
<g
transform="matrix(-1.134,0.4381,0.4098,1.212,766,-236.8)">
<path
stroke-linejoin="round"
d="m 426.1,394 c -2.5,14.8 4.7,6.5 8.5,9.4 1.8,1.5 2.5,5.4 1.5,7 -5,4.9 -11.4,0.6 -15.9,1.5 -8.9,2.5 -11.5,9.4 -11.7,15 4.8,62.4 86,51.5 69.3,-5.6 -2.1,-5.4 -5.3,-9.4 -8.2,-10.9 -4.8,-1.2 -9.3,0.5 -13.8,-0.9 -1.2,-0.2 -5.4,-1.3 -8.8,-1.4 -3,-4.6 -4.6,-12.7 -10,-15 -2.9,-1.1 -10.5,-1.3 -10.9,0.9 z"
stroke="#d40000"
stroke-width="2.7273"
fill="#e3001b"
style="fill:#c70018;fill-opacity:1;stroke:#a00000;stroke-opacity:1" />
<path
fill="#4e9a06"
d="m 427.6,393.4 c -1.4,1.4 -2.2,6.6 -0.6,8.2 1.6,1.6 5.8,-1.5 7.9,0 2.1,1.5 1.5,10 3.5,8.5 2.2,-1.6 4.4,-1.1 6.8,-0.9 2.4,0.3 -3.8,-11.7 -6.2,-13.8 -2.4,-1.7 -9.7,-3.7 -11.4,-2 z"/>
</g>
<path
stroke-linejoin="round"
d="m 164.6,578.8 c 0,0 -26.1,-67.8 -23.9,-102.9 7.9,-127.2 101.4,-169 196,-169 94.6,0 194.6,72.9 196,169 0.6,35.4 -25.9,102.9 -25.9,102.9"
stroke="#806600"
stroke-linecap="round"
stroke-width="24"
fill="none" />
<g
transform="matrix(2.387,0.5296,-0.5296,2.387,-647.9,-119.6)">
<path
fill="url(#linearGradient4641)"
d="M 521.1,73.28 514.9,117 512,145.5 c -6.3,74.7 0.6,31.2 9.5,-19.1 l 2,-15.1 3.9,-29.1 c -0.7,-8.4 1.3,-6.44 -6.3,-8.92 z"
style="fill:url(#linearGradient35668);fill-opacity:1" />
</g>
<path
fill="#504416"
d="m 140.9,513.3 c 0,0 48.8,-4.2 100.7,7 40.9,-5.6 56.3,-5.8 96.4,0 40,-7.2 56.9,-5.2 100.3,-1.8 55.5,-12 96.9,-9.1 96.9,-9.1 L 474.9,716 c -16.7,5.8 -31.7,10.5 -59.7,5 -24.1,10.5 -46.8,15.9 -77.4,4 -35.2,11.9 -56.3,5 -78.3,-3.6 -29.3,7.2 -59.1,-4.6 -59.1,-4.6 z"
style="fill:#806c28;fill-opacity:1" />
<g
stroke-linejoin="round"
transform="translate(27.71,292.4)"
stroke="#d4aa00"
stroke-linecap="round"
stroke-width="10"
fill="none"
style="stroke:#a78600;stroke-opacity:1">
<path
d="m 235.3,434.7 c 24.3,11.9 54.4,12.6 78.6,0"
style="stroke:#a78600;stroke-opacity:1" />
<path
d="m 305.5,434.7 c 24.4,11.9 54.4,12.6 78.7,0"
style="stroke:#a78600;stroke-opacity:1" />
<path
d="m 379.9,428.6 c 25,10.8 50.7,9.5 74.4,-4"
style="stroke:#a78600;stroke-opacity:1" />
<path
d="m 165.1,424.7 c 21.7,11.1 46.7,13.3 66.7,4.3"
style="stroke:#a78600;stroke-opacity:1" />
</g>
<path
stroke-linejoin="round"
d="m 138.5,512.7 55.7,200.6"
stroke="#806600"
stroke-linecap="round"
stroke-width="16"
fill="none"
style="stroke:#ac8900;stroke-opacity:1" />
<g
stroke-linejoin="round"
transform="matrix(0.9521,0,0,-0.6806,42.53,689.1)"
stroke="#aa8800"
stroke-linecap="round"
stroke-width="12.422"
fill="none">
<path
d="m 203.7,250.7 c 36,11.9 76.1,12.7 112,0" />
<path
d="m 303.7,250.7 c 36,11.9 76.1,12.7 112,0" />
<path
d="m 403.7,250.7 c 37.7,14.3 78.1,20.9 118.3,20.5" />
<path
d="m 101.6,265.4 c 38.5,1.8 77.4,-2.8 114.1,-14.7" />
</g>
<path
stroke-linejoin="round"
d="M 535.2,509.4 480.3,709.9"
stroke="#806600"
stroke-linecap="round"
stroke-width="16"
fill="none"
style="stroke:#ac8900;stroke-opacity:1" />
<path
stroke-linejoin="round"
d="M 433.3,523.9 407.7,721.1"
stroke="#806600"
stroke-linecap="round"
stroke-width="16"
fill="none"
style="stroke:#ac8900;stroke-opacity:1" />
<path
stroke-linejoin="round"
d="M 338,520.3 337.8,725"
stroke="#806600"
stroke-linecap="round"
stroke-width="16.024"
fill="none"
style="stroke:#ac8900;stroke-opacity:1" />
<path
stroke-linejoin="round"
d="m 241.6,520.3 17.9,201.1"
stroke="#806600"
stroke-linecap="round"
stroke-width="16.1503"
fill="none"
style="stroke:#ac8900;stroke-opacity:1" />
</g>
</svg>
