<?xml version="1.0" encoding="UTF-8" standalone="no"?>
<svg




xmlns="http://www.w3.org/2000/svg"
id="Layer_1"
style="enable-background:new -0.258 -0.548 123.547 123.539"
xml:space="preserve"
viewBox="-0.258 -0.548 123.547 123.539"
version="1.1"
y="0px"
x="0px">
<g
id="g22">
<path
style="fill:#000"
d="M 14.609,1.816 C 7.851,1.816 2.343,7.324 2.343,14.089 v 94.081 c 0,6.77 5.508,12.28 12.266,12.28 h 94.081 c 6.75,0 12.28,-5.51 12.28,-12.28 V 14.087 c 0,-6.766 -5.52,-12.273 -12.28,-12.273 H 14.606 Z"
id="path8"/><rect
x="-27.158"
y="60.234"
width="66.89"
height="9.5782"
transform="matrix(0.66703,-0.74503,0.66703,0.74503,0,0)"
style="fill:#fff;"
id="rect626" /><path
d="m 67.103,87.298 c -3.072,4.306 -10.219,4.376 -12.931,0.174 -1.489,-2.328 -5.518,-2.433 -7.226,-0.279 -2.664,4.376 -9.969,4.445 -12.665,0.173 -1.583,-2.398 -5.83,-2.433 -7.382,0 -0.846,-0.664 -1.709,-1.346 -2.602,-2.012 1.332,-2.119 3.856,-3.151 6.269,-3.151 2.43,0 5.016,1.032 6.333,3.203 1.505,2.311 5.58,2.399 7.21,0.175 2.649,-4.323 10,-4.235 12.697,0 1.552,2.363 5.595,2.363 7.46,0 1.552,-2.257 4.091,-3.291 6.489,-3.291 2.415,0 5.016,1.034 6.317,3.205 1.52,2.31 5.596,2.398 7.211,0.174 2.664,-4.323 9.98,-4.237 12.692,0 1.537,2.364 0.157,6.215 -2.649,1.944 -1.485,-2.329 -5.529,-2.416 -7.222,-0.281 -2.633,4.377 -9.938,4.447 -12.666,0.175 -1.566,-2.398 -5.798,-2.415 -7.335,0 z"
style="fill:#fff"
id="path625"/><path
d="m 67.103,95.263 c -3.072,4.321 -10.219,4.38 -12.931,0.175 -1.489,-2.329 -5.518,-2.415 -7.226,-0.263 -2.664,4.374 -9.969,4.433 -12.665,0.176 -1.583,-2.399 -5.83,-2.434 -7.382,0 -0.846,-0.683 -1.709,-1.348 -2.602,-2.032 1.332,-2.117 3.856,-3.15 6.269,-3.133 2.43,0 5.016,1.016 6.333,3.186 1.505,2.329 5.58,2.399 7.21,0.175 2.649,-4.307 10,-4.236 12.697,0 1.552,2.382 5.595,2.382 7.46,0 1.552,-2.258 4.091,-3.291 6.489,-3.274 2.415,0 5.016,1.016 6.317,3.187 1.52,2.328 5.596,2.398 7.211,0.175 2.664,-4.306 9.98,-4.236 12.692,0 1.537,2.381 0.157,6.228 -2.649,1.943 -1.485,-2.328 -5.529,-2.416 -7.222,-0.263 -2.633,4.374 -9.938,4.444 -12.666,0.175 -1.566,-2.398 -5.798,-2.433 -7.335,0 z"
style="fille:#fff"
id="path624"/><path
d="M 104.55,72.066 93.796,72.312 V 98.54 h 23.914 z"
style="fill:#fff"
id="path620"/><path
d="m 18.388,72.066 10.737,0.246 V 98.54 H 5.2217 Z"
style="fill:#fff"
id="path637"/>
</g>
</svg>
