<?xml version="1.0" standalone="no"?>
<!DOCTYPE svg PUBLIC "-//W3C//DTD SVG 20010904//EN"
"http://www.w3.org/TR/2001/REC-SVG-20010904/DTD/svg10.dtd">
<svg version="1.0" xmlns="http://www.w3.org/2000/svg"
width="54.023346pt" height="36.000000pt" viewBox="0 0 54.023346 36.000000"
preserveAspectRatio="xMidYMid meet">
<g transform="translate(0.000000,36.000000) scale(0.004669,-0.004669)"
fill="#4d4d4d" stroke="none">
<path d="M5221 6509 c-59 -11 -88 -32 -96 -68 -11 -49 1 -71 40 -71 39 0 45
-11 45 -86 0 -40 -4 -54 -14 -54 -8 0 -16 -4 -18 -10 -1 -5 -18 -12 -35 -16
-33 -6 -33 -6 -34 32 0 22 -8 62 -18 89 -15 42 -22 51 -46 53 -19 3 -34 -3
-44 -16 -24 -30 -97 -43 -296 -54 -99 -6 -185 -14 -192 -20 -18 -15 -26 -92
-14 -130 7 -22 28 -46 58 -67 l46 -33 116 12 c64 6 161 20 216 31 122 23 174
24 181 4 4 -8 14 -15 23 -15 9 0 25 -10 35 -21 18 -22 30 -22 140 -7 10 2 23
-5 29 -14 10 -15 5 -25 -30 -60 -45 -47 -183 -263 -218 -343 -12 -27 -28 -79
-35 -115 -13 -69 -5 -118 51 -312 l20 -68 -31 -30 c-16 -16 -30 -35 -30 -41 0
-12 42 -173 82 -319 11 -41 26 -100 33 -130 12 -50 50 -199 89 -340 8 -30 31
-113 50 -185 50 -185 132 -486 157 -577 12 -43 22 -94 23 -115 1 -34 -2 -37
-31 -44 -18 -3 -42 -13 -54 -20 -25 -17 -141 -236 -158 -300 l-13 -46 -186 -9
c-103 -5 -326 -8 -497 -8 -310 0 -310 0 -392 27 -85 29 -204 107 -269 178 -33
37 -91 127 -146 229 -20 36 -64 117 -98 180 -35 63 -73 133 -85 155 -12 22
-50 92 -85 155 -35 63 -78 144 -97 180 -52 98 -57 102 -100 82 -35 -17 -35
-17 -58 12 -13 16 -29 41 -36 55 -8 14 -23 40 -35 56 -13 17 -50 91 -84 165
-33 74 -82 173 -109 220 -27 47 -50 90 -52 95 -2 6 -24 46 -48 90 -41 73 -43
79 -26 89 10 6 26 18 34 26 67 63 133 84 286 93 l40 2 3 49 c2 27 1 60 -3 73
-13 55 -143 76 -307 49 -123 -20 -197 -20 -290 0 -105 23 -254 21 -287 -4 -60
-44 -83 -172 -40 -226 19 -24 21 -35 15 -95 -6 -58 -4 -69 9 -75 36 -13 58 -4
107 45 50 50 52 51 97 45 46 -6 75 -29 123 -99 20 -28 74 -45 91 -28 8 8 36
-38 100 -162 49 -94 129 -247 178 -340 56 -104 92 -183 95 -210 l6 -43 -182
-102 -181 -101 -61 29 c-33 16 -65 33 -72 38 -31 24 -200 77 -346 108 -107 23
-466 27 -575 6 -196 -38 -322 -83 -484 -173 -222 -123 -417 -300 -564 -511
-37 -53 -67 -98 -67 -101 0 -3 -18 -36 -39 -74 -73 -126 -129 -280 -171 -464
-11 -47 -28 -107 -39 -132 -21 -50 -48 -67 -178 -118 -60 -22 -72 -32 -55 -42
4 -3 43 -1 87 3 63 6 94 16 146 44 37 20 73 36 80 36 11 0 14 -36 15 -183 0
-195 15 -310 60 -465 29 -98 85 -246 115 -298 11 -21 33 -61 47 -88 15 -28 48
-79 74 -114 27 -35 48 -66 48 -71 0 -4 37 -47 82 -97 190 -207 438 -369 688
-449 178 -56 199 -59 430 -59 222 0 342 15 476 59 78 26 374 179 394 204 3 4
41 35 84 69 85 67 213 199 265 272 75 107 108 158 135 210 16 30 30 56 31 57
1 2 21 -5 44 -14 34 -13 44 -14 51 -4 6 11 35 11 156 -2 243 -26 402 -37 718
-47 286 -10 326 -15 326 -41 0 -5 -7 -9 -15 -9 -20 0 -27 -33 -23 -110 3 -65
3 -65 33 -65 24 0 31 5 39 33 11 39 22 40 48 7 26 -33 48 -32 83 5 32 34 45
31 45 -10 0 -28 15 -40 50 -40 24 0 30 19 30 106 l0 74 -35 0 c-24 0 -35 -5
-35 -15 0 -8 -3 -15 -7 -15 -9 0 -43 56 -43 69 0 5 71 11 158 15 266 12 585
40 862 77 141 18 207 32 295 59 90 28 182 33 723 37 501 3 562 2 562 -12 0
-13 77 -15 709 -15 420 0 712 4 715 9 4 5 9 31 13 58 3 26 12 54 20 61 7 7 13
22 13 32 0 50 117 310 139 310 5 0 11 -60 13 -132 6 -137 36 -379 49 -388 4
-3 10 -22 14 -42 4 -21 16 -47 26 -59 10 -12 19 -28 19 -36 0 -8 19 -52 43
-98 47 -94 58 -100 116 -64 18 11 34 19 35 17 31 -69 167 -220 281 -311 97
-78 222 -147 320 -177 22 -6 54 -18 70 -25 66 -29 153 -40 310 -39 153 0 261
15 315 45 8 5 62 27 120 49 58 22 123 53 146 68 107 71 244 183 244 200 0 4
21 28 46 52 72 71 177 249 231 395 67 178 92 455 59 645 -30 171 -100 357
-178 472 -21 31 -38 60 -38 64 0 3 -14 23 -31 43 -191 223 -393 355 -626 412
-51 12 -93 25 -93 29 0 4 14 13 30 20 17 7 39 25 50 41 23 31 24 30 -47 44
-37 7 -37 8 -22 37 9 17 17 19 48 14 57 -9 78 11 86 83 4 37 2 73 -4 94 -11
31 -16 35 -58 41 -25 3 -72 6 -103 6 -51 0 -58 -2 -64 -22 -9 -35 -7 -133 3
-144 5 -5 11 -20 13 -34 3 -24 1 -25 -67 -27 -113 -4 -264 -23 -353 -44 -46
-10 -85 -19 -87 -19 -2 0 -10 18 -16 39 -11 37 -10 42 15 73 94 116 151 178
161 178 7 0 36 -7 64 -16 61 -20 72 -14 95 53 19 56 20 82 3 105 -7 9 -73 35
-147 58 -74 24 -137 47 -139 53 -8 21 -78 83 -106 94 -214 84 -295 110 -343
111 -30 1 -59 5 -65 10 -7 6 -32 13 -57 17 -25 4 -142 29 -260 55 -118 26
-267 58 -330 70 -63 13 -122 26 -132 31 -17 9 -272 52 -528 89 -253 37 -394
60 -415 69 -27 12 -315 52 -325 46 -5 -3 -78 -1 -163 5 -295 20 -818 29 -1142
20 l-320 -8 -35 38 c-26 29 -46 40 -77 45 -22 4 -49 15 -59 26 -9 10 -30 19
-46 19 -31 0 -39 12 -56 90 -24 105 -35 140 -48 151 -22 18 -17 61 22 215 41
160 39 170 -30 181 -31 5 -36 2 -50 -26 -14 -27 -22 -31 -56 -31 -35 0 -40 3
-46 28 -3 15 -19 80 -35 144 -39 155 -38 177 12 268 56 102 181 289 254 380
88 108 95 120 95 161 0 54 -8 67 -51 89 -32 17 -59 20 -158 20 l-119 0 -7 31
c-4 17 -3 35 1 39 5 5 40 10 79 12 63 3 71 5 82 28 16 35 1 109 -27 132 -25
20 -127 23 -209 7z m-1958 -2911 c90 -156 182 -314 202 -353 21 -38 45 -81 54
-95 9 -14 23 -37 30 -52 7 -14 44 -65 82 -112 38 -47 69 -88 69 -92 0 -3 -15
-3 -32 1 -18 4 -61 9 -95 12 -39 3 -63 9 -63 17 0 6 -16 44 -35 85 -19 40 -35
76 -35 81 0 16 -113 208 -156 263 -24 31 -44 60 -44 63 0 17 -199 219 -246
250 -30 20 -65 49 -79 66 l-25 29 28 23 c24 21 158 94 173 96 4 0 81 -127 172
-282z m-1173 2 c96 -12 250 -47 265 -61 6 -6 -12 -31 -46 -67 -53 -54 -163
-187 -184 -220 -5 -9 -30 -48 -55 -87 -25 -39 -53 -84 -62 -100 -25 -44 -158
-316 -158 -323 0 -4 -27 -36 -60 -71 -89 -95 -141 -220 -144 -342 -1 -57 4
-76 39 -150 56 -118 92 -145 223 -166 173 -26 207 -30 218 -26 6 2 18 -7 27
-20 8 -13 53 -51 98 -83 45 -32 97 -74 115 -91 18 -18 38 -33 44 -33 7 0 19
-9 28 -19 12 -13 51 -26 122 -41 130 -28 107 -23 228 -45 77 -14 115 -26 148
-48 25 -16 43 -34 42 -39 -8 -22 -114 -147 -125 -148 -7 0 -13 -7 -13 -14 0
-32 -192 -189 -297 -244 -144 -74 -337 -134 -463 -144 -83 -6 -250 2 -318 16
-78 16 -275 84 -280 97 -2 5 -11 9 -19 9 -22 0 -139 67 -155 88 -7 9 -26 24
-43 32 -34 17 -194 173 -246 240 -131 169 -228 405 -260 630 -28 202 1 517 57
622 8 14 14 33 14 40 0 8 16 47 35 87 19 39 35 75 35 79 0 5 23 41 50 81 28
40 50 76 50 80 0 4 31 41 70 82 38 41 70 77 70 80 0 9 172 136 204 150 14 7
26 15 26 19 0 9 89 53 160 80 83 31 206 61 273 66 33 2 63 6 65 9 9 9 133 6
222 -5z m555 -209 c74 -48 227 -205 301 -310 41 -57 74 -109 74 -117 0 -9 -13
-11 -52 -8 -29 3 -219 18 -421 33 -202 16 -371 31 -374 35 -3 3 6 24 21 46 14
22 26 42 26 45 0 3 24 41 53 83 28 42 54 82 57 88 3 6 43 52 90 101 l85 89 50
-30 c28 -16 68 -41 90 -55z m7889 -516 c140 -35 187 -60 335 -177 61 -48 168
-187 206 -267 36 -75 73 -191 86 -270 16 -95 13 -277 -6 -358 -9 -37 -18 -79
-21 -93 -3 -13 -17 -49 -30 -80 -14 -30 -31 -68 -38 -85 -30 -68 -135 -198
-217 -267 -97 -84 -176 -129 -286 -163 -239 -73 -446 -52 -681 68 -23 12 -84
61 -135 108 -121 113 -205 249 -270 434 -17 51 -21 83 -20 210 0 168 14 293
38 351 35 81 95 201 112 220 33 37 80 99 92 122 13 25 141 123 152 117 3 -3 9
-53 12 -112 6 -115 39 -299 57 -317 5 -5 10 -16 10 -23 0 -8 17 -36 39 -62 21
-27 54 -89 74 -138 77 -192 123 -234 272 -248 79 -6 80 -6 108 22 28 30 47 79
47 123 0 23 -36 77 -123 184 -18 22 -66 140 -141 348 -63 172 -117 320 -121
330 -5 13 4 18 52 28 32 7 63 14 68 15 6 2 60 4 120 4 87 1 132 -4 209 -24z
m-8264 -76 c47 -5 126 -14 175 -20 114 -12 115 -13 115 -46 0 -27 -7 -31 -112
-75 -62 -26 -121 -50 -130 -53 -11 -5 -30 6 -57 32 -38 36 -76 58 -163 97 -31
14 -38 22 -38 45 0 47 -10 46 210 20z m806 -75 l51 -6 16 -57 c30 -110 40
-188 41 -346 1 -155 -16 -309 -35 -321 -5 -3 -9 -17 -9 -31 0 -15 -7 -53 -16
-85 -15 -52 -19 -58 -43 -58 -36 0 -322 59 -343 70 -10 6 -24 10 -32 10 -20 0
-95 98 -117 152 -6 15 -25 38 -44 52 -18 14 -54 54 -79 88 -26 35 -54 71 -62
81 -23 28 -19 129 6 152 11 10 20 23 20 29 1 21 55 74 114 111 32 20 68 46 81
57 12 10 58 42 101 69 l79 50 110 -6 c61 -3 133 -8 161 -11z m764 -69 c107 -9
203 -21 212 -26 10 -5 25 -9 35 -9 9 0 32 -14 50 -32 33 -32 33 -33 33 -125 0
-51 -4 -101 -10 -111 -18 -32 -44 -176 -48 -263 -3 -73 0 -93 17 -125 12 -21
21 -46 21 -56 0 -18 72 -98 89 -98 15 0 54 -59 48 -74 -7 -17 -166 -26 -272
-15 -300 32 -471 51 -474 55 -2 2 3 32 13 66 49 178 71 417 56 607 -6 75 -16
153 -21 174 -12 46 -5 60 29 53 15 -3 115 -12 222 -21z m1320 -44 l145 -6 90
-360 c50 -198 94 -368 97 -377 12 -30 -5 -56 -55 -87 -39 -26 -61 -31 -129
-36 -46 -3 -99 -10 -118 -15 -19 -5 -141 -14 -270 -20 l-235 -10 -82 87 c-96
100 -112 130 -149 273 -21 81 -36 117 -66 156 -26 35 -38 61 -38 84 0 51 57
155 107 196 24 19 43 41 43 49 0 7 16 27 35 44 l36 31 222 -1 c122 -1 287 -4
367 -8z"/>
</g>
</svg>
