<?xml version="1.0" standalone="no"?>
<!DOCTYPE svg PUBLIC "-//W3C//DTD SVG 20010904//EN"
"http://www.w3.org/TR/2001/REC-SVG-20010904/DTD/svg10.dtd">
<svg version="1.0" xmlns="http://www.w3.org/2000/svg"
width="50.254335pt" height="36.000000pt" viewBox="0 0 50.254335 36.000000"
preserveAspectRatio="xMidYMid meet">
<g transform="translate(0.000000,36.000000) scale(0.010405,-0.010405)"
fill="#4d4d4d" stroke="none">
<path d="M1970 3413 c-14 -3 -39 -16 -57 -29 l-31 -24 2 -97 c2 -54 8 -117 15
-141 15 -55 7 -82 -25 -82 -16 0 -28 -8 -34 -22 -5 -13 -24 -59 -43 -103 -19
-44 -45 -120 -57 -168 -16 -61 -34 -102 -57 -133 -42 -55 -83 -145 -83 -183 0
-34 -11 -43 -66 -59 -23 -7 -47 -19 -54 -27 -10 -12 -8 -16 15 -25 14 -5 35
-10 45 -10 28 0 31 -13 19 -68 -9 -44 -19 -58 -83 -115 -63 -56 -77 -75 -107
-146 -33 -80 -35 -82 -94 -110 -74 -35 -135 -89 -214 -187 -51 -63 -65 -90
-91 -172 -17 -55 -33 -131 -36 -177 -12 -162 59 -349 199 -526 l75 -94 -60
-120 c-33 -66 -72 -135 -87 -153 -14 -19 -37 -57 -51 -86 -16 -32 -39 -60 -62
-75 -44 -28 -48 -54 -15 -89 l22 -25 -60 7 c-146 16 -334 25 -505 26 -157 0
-201 4 -287 24 l-103 23 0 -124 0 -124 2415 1 2415 1 0 73 0 73 -52 16 c-343
100 -398 113 -557 123 -101 7 -104 7 -135 41 -40 44 -101 59 -299 73 -81 6
-162 17 -180 24 -140 60 -250 94 -357 110 -24 4 -52 13 -60 21 -9 8 -83 28
-165 45 -120 24 -173 30 -279 30 -151 0 -205 -13 -274 -64 -26 -18 -87 -51
-137 -71 -113 -48 -166 -86 -254 -183 l-70 -76 -86 -12 c-47 -7 -98 -19 -113
-27 -15 -8 -45 -24 -68 -35 -38 -21 -54 -22 -283 -23 -239 -1 -243 0 -267 22
-38 36 -38 53 1 105 20 26 54 83 76 126 34 68 107 158 128 158 12 0 63 -43
141 -118 75 -73 134 -112 167 -112 10 0 28 8 41 18 22 17 22 19 6 51 -9 18
-22 35 -29 37 -15 6 -89 114 -82 120 2 3 42 11 88 18 104 18 215 62 275 111
50 42 131 150 175 237 19 38 40 63 60 73 17 9 33 14 36 11 3 -3 1 -38 -6 -78
-11 -66 -16 -77 -57 -119 -35 -36 -42 -48 -32 -56 10 -9 27 2 71 43 l59 55 15
97 c16 99 44 155 67 132 15 -15 83 -12 115 4 15 8 42 31 60 51 28 32 31 42 31
102 0 62 -3 70 -42 121 l-41 55 189 380 c120 240 197 385 212 394 12 9 24 14
26 12 2 -2 15 -25 30 -51 l28 -48 -45 -52 c-120 -141 -162 -372 -106 -590 56
-219 196 -399 410 -524 179 -106 312 -140 503 -131 188 9 289 53 427 184 87
84 115 125 152 230 45 124 46 365 2 469 -91 213 -256 394 -468 514 -143 80
-243 104 -412 97 -135 -6 -211 -24 -314 -76 -23 -12 -44 -21 -45 -19 -2 2 -17
29 -34 61 -25 47 -29 62 -20 77 9 14 7 31 -6 73 -18 57 -16 83 10 125 19 28
28 28 58 -4 24 -27 46 -26 46 2 0 8 -11 37 -25 64 -14 27 -25 52 -25 54 0 3
13 12 30 21 70 36 210 3 210 -50 0 -13 -12 -49 -27 -79 -21 -44 -36 -60 -75
-81 -54 -30 -67 -48 -48 -70 10 -12 18 -11 58 9 59 30 103 76 136 143 31 62
32 77 8 124 l-18 36 26 31 26 32 17 -35 c9 -20 17 -41 17 -48 0 -18 76 -90 89
-86 6 2 -2 19 -17 39 -34 43 -74 144 -76 190 -1 30 -6 38 -39 53 -46 23 -63
13 -72 -43 -5 -30 -13 -41 -35 -50 -16 -7 -34 -18 -40 -25 -8 -10 -27 -12 -65
-8 -66 7 -95 0 -134 -32 -22 -19 -36 -24 -56 -19 -16 4 -32 1 -43 -8 -30 -26
-152 -88 -172 -88 -25 0 -38 -27 -33 -70 4 -33 1 -37 -59 -77 -98 -65 -170
-95 -253 -108 -35 -5 -45 -2 -78 25 -21 18 -55 57 -76 88 -21 32 -51 68 -66
82 -15 14 -40 44 -56 67 -28 40 -29 44 -14 67 15 23 18 23 45 9 42 -21 63 -13
71 24 9 43 25 61 57 65 25 3 27 7 30 56 3 44 7 55 26 63 41 19 93 99 99 152 6
64 -17 150 -56 205 -46 63 -139 129 -218 152 -63 19 -190 25 -259 13z m355
-487 c51 -15 57 -39 14 -62 -29 -15 -35 -15 -65 0 -43 20 -74 64 -53 76 14 9
28 7 104 -14z m545 -666 c-25 -49 -36 -62 -60 -67 -32 -6 -43 -39 -15 -45 10
-2 -20 -68 -112 -244 -113 -216 -129 -241 -145 -231 -18 12 -123 -4 -139 -20
-5 -5 -15 -55 -24 -113 -14 -96 -29 -131 -54 -130 -3 1 -85 144 -182 320
l-177 319 18 28 c25 41 36 47 139 76 l93 26 41 -21 c23 -11 59 -32 81 -47 31
-20 51 -26 97 -26 54 0 63 4 141 58 46 31 109 83 141 115 56 57 57 57 122 60
l66 3 -31 -61z m-716 -28 c5 -8 -92 -38 -99 -30 -2 2 5 18 15 36 20 32 21 32
49 17 17 -8 32 -19 35 -23z m909 -86 c-10 -5 -20 -3 -31 7 -13 14 -13 19 -2
32 13 15 15 14 31 -7 16 -20 16 -24 2 -32z m507 -26 c153 -16 307 -97 414
-217 140 -157 180 -231 210 -393 11 -56 13 -93 6 -132 -29 -173 -151 -336
-291 -389 -124 -48 -147 -52 -268 -46 -198 9 -313 62 -462 214 -152 154 -209
290 -209 494 0 74 4 93 33 156 18 39 45 86 59 105 l25 33 43 -85 c73 -146 162
-252 280 -335 30 -21 63 -47 73 -57 29 -29 53 -22 91 31 20 27 36 53 36 59 0
6 -37 38 -82 70 -46 33 -95 73 -110 89 -42 45 -215 317 -210 331 5 16 74 52
132 68 55 15 119 16 230 4z m-356 -187 c103 -164 171 -246 255 -307 l80 -58
-21 -29 c-12 -16 -25 -29 -29 -29 -21 0 -141 104 -202 175 -64 74 -132 189
-162 275 -11 32 -11 38 4 47 9 6 18 9 21 8 3 -2 27 -39 54 -82z m-1120 -230
c86 -155 159 -289 162 -298 23 -58 -90 51 -138 134 -36 62 -181 213 -246 256
-27 18 -39 32 -34 39 5 6 28 44 51 84 24 41 44 72 45 70 2 -2 74 -130 160
-285z m-789 -50 c7 -60 26 -115 48 -141 9 -11 12 -78 13 -241 0 -124 4 -258 8
-296 l8 -70 -50 -42 -49 -42 -46 47 c-32 32 -62 80 -95 152 -72 154 -86 205
-79 292 10 116 14 133 57 218 33 65 52 89 102 129 35 28 66 50 69 51 4 0 10
-26 14 -57z m1235 -19 c0 -10 -112 -215 -116 -212 -1 2 5 48 14 102 14 80 22
101 37 107 24 9 65 11 65 3z m8 -397 c2 -37 0 -67 -4 -67 -5 0 -21 12 -36 27
-36 34 -39 85 -5 101 36 17 42 9 45 -61z m-705 -25 c-18 -2 -48 -2 -66 0 -31
3 -34 5 -26 25 l8 21 58 -21 c55 -21 56 -22 26 -25z m654 -38 c26 -35 26 -37
8 -50 -10 -8 -36 -14 -57 -14 -35 0 -38 2 -38 27 0 18 10 35 28 50 15 12 28
22 29 23 1 0 14 -16 30 -36z m-487 -4 c13 -8 12 -10 -3 -10 -30 0 -179 -80
-243 -131 -34 -27 -65 -49 -69 -49 -9 0 2 77 21 140 l15 49 92 4 c50 1 110 4
132 5 22 1 47 -3 55 -8z m-1 -327 c-37 -49 -60 -68 -120 -98 -70 -36 -222 -80
-245 -71 -8 3 -14 10 -14 15 0 17 97 81 152 101 29 10 80 30 113 44 33 14 75
26 94 26 30 0 32 -2 20 -17z"/>
</g>
</svg>
