<?xml version="1.0" standalone="no"?>
<!DOCTYPE svg PUBLIC "-//W3C//DTD SVG 20010904//EN"
"http://www.w3.org/TR/2001/REC-SVG-20010904/DTD/svg10.dtd">
<svg version="1.0" xmlns="http://www.w3.org/2000/svg"
width="52.226171pt" height="36.000000pt" viewBox="0 0 52.226171 36.000000"
preserveAspectRatio="xMidYMid meet">
<g transform="translate(0.000000,36.000000) scale(0.005816,-0.005816)"
fill="#4d4d4d" stroke="none">
<path d="M2990 6163 c-46 -9 -171 -72 -233 -117 -90 -64 -137 -155 -172 -329
-4 -20 -10 -27 -20 -23 -8 3 -19 -3 -24 -12 -5 -9 -31 -28 -57 -42 -64 -34
-87 -68 -96 -143 -4 -34 -19 -105 -33 -157 -37 -131 -37 -247 -1 -393 15 -60
24 -117 21 -127 -3 -10 -40 -49 -82 -87 -90 -80 -294 -320 -323 -379 -11 -22
-25 -67 -31 -99 -13 -73 -8 -79 102 -111 78 -22 101 -24 330 -24 l246 0 11
-72 c33 -217 27 -257 -63 -406 -31 -51 -53 -97 -50 -102 3 -5 -12 -36 -34 -68
-48 -69 -112 -196 -136 -267 -32 -96 -40 -209 -23 -330 19 -129 18 -133 -85
-365 -32 -74 -96 -222 -142 -328 -45 -106 -84 -195 -87 -197 -2 -2 -71 -9
-153 -15 -265 -19 -343 -40 -568 -149 -89 -44 -212 -92 -330 -130 -103 -34
-189 -61 -192 -61 -2 0 -11 15 -20 34 -20 42 -67 66 -129 66 -27 0 -67 10
-100 25 -30 14 -62 25 -71 25 -25 0 -42 -54 -65 -210 -16 -108 -32 -172 -62
-250 -59 -154 -78 -217 -78 -258 0 -120 94 -256 164 -238 29 7 50 54 77 171
33 143 53 168 195 243 77 41 90 51 99 82 5 19 13 40 18 47 16 25 327 84 882
168 275 41 505 81 552 96 42 13 108 88 156 175 21 39 74 108 118 155 127 135
231 279 356 492 19 31 38 57 42 57 13 0 366 -408 454 -524 45 -59 46 -81 12
-215 -13 -53 -27 -122 -31 -152 -12 -104 39 -335 191 -860 52 -180 95 -331 95
-336 0 -4 -20 -21 -45 -36 -25 -16 -45 -32 -45 -35 0 -4 7 -32 15 -62 9 -30
19 -97 25 -149 5 -58 14 -97 22 -102 39 -25 206 4 347 61 57 23 156 51 244 69
169 34 243 68 319 143 59 60 73 111 38 140 -26 21 -100 24 -214 7 -94 -14
-138 -2 -262 72 -61 37 -99 53 -137 58 l-52 6 -22 155 c-70 499 -93 801 -73
990 19 193 24 343 11 383 -7 19 -39 72 -71 117 -32 45 -67 103 -76 128 -86
236 -222 519 -318 662 -43 63 -83 126 -88 140 -15 38 -27 161 -18 185 7 18 80
409 80 427 0 4 37 18 83 33 147 48 212 92 456 304 129 113 167 140 198 146 29
4 57 22 106 66 65 59 67 62 67 109 0 50 -18 97 -62 167 -36 55 -55 59 -122 26
-30 -15 -58 -24 -61 -21 -3 3 3 21 14 39 24 39 27 97 8 123 -13 17 -15 17 -39
-5 -15 -13 -45 -60 -67 -104 -38 -73 -41 -85 -41 -160 0 -55 -5 -87 -15 -102
-27 -38 -112 -93 -216 -140 l-102 -46 -18 24 c-17 22 -17 25 -1 42 15 17 15
21 0 47 -14 25 -15 40 -6 102 5 40 8 114 6 164 -5 112 -26 157 -146 317 -94
123 -107 155 -97 234 8 67 24 83 83 83 113 0 161 41 140 117 -6 23 -6 39 1 47
7 8 9 36 5 72 -6 58 -6 59 25 77 40 23 39 43 -4 91 -35 40 -42 59 -63 166 -5
31 -20 73 -33 94 -15 25 -22 52 -21 75 4 63 -41 111 -155 163 -68 31 -169 45
-233 31z m-338 -608 c14 -14 35 -51 47 -83 27 -74 57 -103 115 -109 41 -5 46
-9 57 -40 15 -47 5 -76 -34 -97 -48 -26 -68 -18 -97 40 -15 27 -40 68 -57 90
-45 56 -93 224 -64 224 4 0 20 -11 33 -25z m-78 -1134 l7 -54 -45 5 c-25 3
-66 18 -92 33 l-48 28 44 13 c25 7 61 26 80 43 34 28 35 29 41 7 3 -11 9 -45
13 -75z"/>
<path d="M6875 6153 c-11 -3 -26 -10 -33 -16 -7 -5 -66 -14 -130 -18 -201 -13
-291 -45 -292 -102 0 -10 -15 -33 -33 -51 -32 -31 -34 -37 -40 -122 -8 -128 2
-179 51 -262 23 -39 42 -75 42 -80 0 -5 9 -17 19 -26 16 -14 18 -23 10 -43 -5
-13 -9 -35 -9 -49 0 -13 -4 -24 -10 -24 -5 0 -10 -11 -10 -25 0 -20 -5 -24
-22 -23 -13 1 -57 -10 -99 -25 -42 -15 -114 -36 -160 -47 -46 -11 -95 -28
-109 -38 -14 -10 -32 -21 -41 -24 -9 -4 -30 -24 -45 -45 -16 -21 -47 -58 -70
-83 -23 -25 -62 -68 -86 -97 -23 -29 -77 -92 -119 -140 -51 -60 -92 -121 -127
-190 -28 -57 -48 -103 -45 -103 3 0 -1 -8 -10 -18 -9 -10 -26 -55 -37 -100
-29 -115 -20 -130 95 -166 47 -15 113 -39 148 -55 34 -15 82 -36 107 -45 25
-10 54 -22 65 -27 11 -4 30 -10 41 -14 21 -6 33 -39 41 -120 2 -27 -42 -233
-69 -323 -10 -33 -13 -223 -4 -272 24 -132 24 -135 10 -169 -22 -53 -19 -81
10 -81 23 0 25 -4 31 -67 3 -38 10 -76 15 -85 17 -30 11 -46 -23 -67 -38 -23
-67 -60 -91 -116 -10 -22 -24 -53 -31 -70 -8 -16 -17 -41 -20 -55 -4 -14 -16
-45 -26 -69 -11 -24 -18 -49 -15 -57 3 -7 28 -23 55 -36 53 -24 57 -33 42 -83
-5 -17 -25 -86 -45 -155 -20 -69 -39 -133 -42 -143 -3 -9 -10 -14 -16 -11 -7
4 -8 2 -4 -4 9 -14 -15 -60 -46 -89 -15 -14 -61 -31 -128 -48 -58 -15 -114
-30 -125 -35 -31 -13 -59 -23 -72 -26 -47 -10 -157 -78 -222 -139 -80 -75
-194 -165 -208 -165 -4 0 -20 -11 -35 -25 -15 -14 -30 -25 -34 -25 -3 0 -23
-12 -43 -28 -55 -41 -77 -51 -99 -45 -14 3 -22 -1 -27 -16 -7 -22 -29 -28 -41
-10 -9 15 -56 5 -201 -42 -73 -24 -124 -47 -127 -56 -17 -43 49 -203 125 -303
46 -59 74 -117 109 -225 13 -38 40 -94 61 -125 44 -62 175 -197 200 -205 21
-7 69 11 85 33 20 26 17 44 -17 96 -24 35 -33 64 -38 110 -10 92 17 249 60
353 11 26 10 40 -3 87 -22 81 -15 102 41 122 25 10 51 21 58 26 6 5 24 13 40
17 56 18 280 99 299 109 10 6 41 19 67 28 26 9 69 30 94 46 25 16 71 34 102
40 31 5 64 14 75 20 10 5 64 14 119 19 114 10 196 43 216 86 17 37 117 184
147 216 15 16 37 49 51 74 13 25 29 51 36 59 27 30 37 44 37 50 0 4 17 32 37
63 47 69 67 103 96 161 12 25 25 47 30 48 4 2 7 12 7 22 0 9 7 23 15 30 8 7
15 19 15 27 0 8 6 13 14 11 8 -2 89 -75 181 -163 92 -88 181 -171 198 -185 63
-50 107 -100 107 -120 0 -12 -6 -33 -13 -48 -22 -45 -77 -313 -77 -375 0 -34
24 -183 42 -257 12 -53 35 -191 44 -272 5 -40 3 -62 -5 -72 -10 -12 -10 -19 2
-36 13 -19 13 -23 -7 -44 -19 -18 -25 -41 -34 -137 -19 -179 -17 -197 16 -211
39 -16 194 -12 282 7 108 24 153 27 257 18 108 -10 177 3 314 57 104 41 119
53 119 99 0 62 -8 66 -117 66 -87 1 -105 4 -158 29 -73 35 -176 105 -231 158
-32 30 -52 41 -85 45 -77 8 -97 21 -103 61 -3 21 1 80 9 132 9 52 24 181 35
285 11 105 26 208 34 230 8 22 17 58 20 80 8 49 35 113 59 140 44 49 58 195
21 226 -8 6 -14 17 -14 23 0 29 -61 126 -119 188 -14 15 -35 44 -46 65 -22 41
-56 95 -65 103 -9 8 -95 142 -131 203 -18 31 -37 57 -41 57 -4 0 -8 5 -8 12 0
6 -9 21 -20 33 -11 12 -35 47 -54 78 -29 47 -33 63 -29 97 6 39 3 43 -56 101
-58 58 -67 71 -61 94 7 25 20 96 30 155 6 36 15 85 21 110 27 111 39 191 39
265 0 51 5 89 15 105 17 30 27 53 41 95 2 6 10 39 18 75 21 95 34 141 39 146
3 3 38 -28 78 -68 78 -77 114 -108 127 -108 4 0 22 -13 41 -29 19 -16 50 -33
70 -37 20 -4 43 -8 51 -10 8 -2 26 -6 40 -9 42 -11 71 27 152 195 67 140 98
227 98 271 0 10 4 20 9 23 5 3 12 18 15 32 12 47 70 156 99 187 27 29 29 36
24 88 -3 36 -12 69 -26 87 -11 17 -21 35 -21 41 0 6 -9 16 -20 23 -12 8 -20
24 -20 40 0 23 -5 28 -35 34 -19 3 -42 4 -50 0 -11 -4 -15 1 -15 20 0 33 -17
64 -35 64 -23 0 -45 -41 -45 -85 0 -22 -7 -49 -15 -59 -11 -15 -15 -49 -15
-132 0 -81 -4 -115 -13 -123 -8 -6 -19 -30 -26 -53 -7 -24 -19 -55 -27 -70 -8
-14 -14 -35 -14 -45 0 -40 -20 -42 -56 -6 -19 18 -34 38 -34 42 0 5 -6 11 -13
14 -8 3 -22 27 -32 54 -10 26 -25 57 -34 68 -9 11 -22 31 -28 45 -28 66 -87
178 -107 205 -12 17 -32 50 -43 75 -39 84 -57 96 -213 140 -36 10 -35 31 3 71
26 26 32 39 26 54 -21 55 10 95 75 95 59 1 80 20 78 74 -2 31 2 46 13 50 19 7
19 33 0 44 -14 7 -13 11 5 27 11 10 20 29 20 42 0 16 10 29 30 41 39 22 38 41
-5 103 -26 38 -32 55 -26 68 12 21 -4 97 -24 117 -12 13 -11 19 5 47 16 27 18
39 9 68 -5 19 -14 56 -19 83 -14 70 -32 86 -94 85 -28 -1 -60 -4 -71 -6z"/>
</g>
</svg>
