<?xml version="1.0" standalone="no"?>
<!DOCTYPE svg PUBLIC "-//W3C//DTD SVG 20010904//EN"
"http://www.w3.org/TR/2001/REC-SVG-20010904/DTD/svg10.dtd">
<svg version="1.0" xmlns="http://www.w3.org/2000/svg"
width="52.087500pt" height="36.000000pt" viewBox="0 0 52.087500 36.000000"
preserveAspectRatio="xMidYMid meet">
<g transform="translate(0.000000,36.000000) scale(0.011250,-0.011250)"
fill="#4d4d4d" stroke="none">
<path d="M1112 3158 c-25 -25 -12 -60 43 -121 63 -71 73 -89 125 -236 90 -247
224 -526 297 -614 13 -16 23 -35 23 -43 0 -8 10 -28 22 -44 15 -21 25 -58 34
-122 7 -51 16 -108 20 -125 3 -18 2 -33 -2 -33 -13 0 -74 24 -115 44 -35 18
-36 20 -35 74 1 81 -6 83 -219 76 -219 -8 -388 6 -544 45 -157 40 -297 93
-356 136 -16 12 -50 32 -75 45 -25 13 -72 40 -104 62 -82 54 -94 34 -14 -25
103 -75 188 -133 283 -194 50 -32 96 -63 103 -70 19 -18 124 -70 202 -100 74
-28 212 -58 315 -69 43 -4 80 -14 97 -25 14 -11 30 -19 36 -19 21 0 252 -127
340 -187 52 -35 97 -63 101 -63 12 0 31 -96 31 -153 0 -29 11 -99 24 -157 13
-58 27 -150 31 -205 11 -157 24 -173 165 -212 322 -87 388 -97 624 -87 161 6
183 5 195 -10 7 -9 26 -16 41 -16 22 0 44 -18 106 -86 43 -47 96 -98 118 -111
22 -14 73 -57 113 -95 85 -80 163 -120 271 -139 64 -11 75 -16 90 -42 24 -41
72 -58 138 -51 53 7 96 29 197 101 24 18 91 57 149 87 88 47 115 56 175 62 56
5 77 3 95 -8 13 -9 38 -19 55 -22 28 -7 37 -3 70 29 21 20 53 43 71 50 23 10
34 22 38 44 4 17 13 36 20 42 8 6 14 17 14 23 0 7 11 23 25 36 28 26 31 46 11
73 -9 11 -12 32 -9 55 10 80 -75 196 -176 240 -42 18 -157 20 -174 3 -6 -6
-18 -11 -26 -11 -9 0 -34 -9 -56 -19 -179 -88 -258 -109 -330 -90 -22 6 -65
15 -95 20 -30 5 -104 23 -165 41 -97 28 -125 32 -235 32 -150 1 -166 8 -210
95 -45 91 -143 147 -282 162 -88 10 -85 9 -216 87 -52 30 -142 71 -202 92
-127 43 -186 76 -255 140 -77 72 -166 137 -210 156 -46 19 -55 29 -55 65 0 22
7 28 56 43 53 17 56 19 51 45 -3 16 -42 84 -85 152 -78 123 -193 347 -227 444
-10 28 -24 64 -31 82 -8 17 -14 38 -14 46 0 34 -93 296 -136 382 -64 129 -87
149 -208 180 -111 28 -137 30 -154 13z m1021 -1953 c40 -29 83 -83 74 -91 -3
-3 -35 -12 -72 -19 -58 -12 -71 -12 -95 0 -15 8 -30 22 -34 30 -9 23 -8 180 2
189 4 4 25 -12 47 -36 22 -25 57 -57 78 -73z"/>
</g>
</svg>
