<?xml version="1.0" standalone="no"?>
<!DOCTYPE svg PUBLIC "-//W3C//DTD SVG 20010904//EN"
"http://www.w3.org/TR/2001/REC-SVG-20010904/DTD/svg10.dtd">
<svg version="1.0" xmlns="http://www.w3.org/2000/svg"
width="55.169811pt" height="36.000000pt" viewBox="0 0 55.169811 36.000000"
preserveAspectRatio="xMidYMid meet">
<g transform="translate(0.000000,36.000000) scale(0.007547,-0.007547)"
fill="#4d4d4d" stroke="none">
<path d="M3402 4538 c-18 -18 -15 -46 10 -86 l21 -35 -29 7 c-98 24 -98 24
-136 -69 -69 -172 -134 -291 -180 -334 l-47 -43 -133 16 c-98 12 -204 16 -398
15 -236 -2 -286 1 -460 24 -107 14 -256 31 -330 38 -153 13 -143 15 -257 -71
-33 -25 -80 -59 -105 -76 -54 -38 -178 -201 -242 -317 -64 -119 -184 -280
-237 -321 -25 -19 -52 -48 -58 -64 -19 -44 -81 -91 -205 -152 -126 -63 -131
-70 -93 -147 37 -74 40 -127 11 -184 -18 -36 -24 -64 -24 -112 l0 -64 -99 -99
c-111 -112 -196 -235 -252 -364 -72 -168 -95 -289 -104 -550 -6 -152 -4 -203
10 -284 45 -258 151 -464 334 -647 227 -228 518 -349 836 -349 172 0 305 29
510 111 132 52 230 69 410 69 74 0 124 7 214 30 145 36 204 66 346 173 93 70
123 100 197 197 161 212 209 334 225 571 l6 99 91 0 c50 0 101 3 112 6 19 5
23 0 30 -42 5 -26 16 -51 25 -57 11 -7 201 10 641 59 l625 70 42 -35 43 -35
236 31 c130 18 244 34 253 38 10 4 46 -19 105 -66 49 -39 90 -72 92 -74 2 -2
-4 -29 -13 -61 -26 -93 -31 -312 -11 -414 89 -441 472 -760 913 -760 191 0
353 46 500 142 227 148 382 382 423 642 20 118 8 311 -25 421 -102 344 -389
602 -739 664 -77 14 -235 14 -312 0 -197 -34 -384 -136 -522 -283 l-60 -64
-73 48 c-43 28 -163 133 -284 249 -140 134 -217 201 -232 201 -14 0 -40 -21
-75 -60 l-53 -60 -373 -40 c-206 -22 -375 -40 -377 -40 -2 0 -16 20 -31 45
-25 43 -25 47 -10 70 20 31 79 62 171 90 43 13 70 27 70 36 0 22 -32 22 -104
0 -36 -11 -86 -25 -110 -31 -53 -14 -141 -96 -141 -132 0 -13 11 -40 25 -61
14 -20 24 -37 23 -37 -26 0 -215 -44 -225 -52 -7 -6 -13 -23 -13 -39 0 -24 -4
-29 -24 -29 -12 0 -50 -3 -83 -6 -54 -6 -60 -5 -65 14 -3 11 -70 68 -149 128
-79 59 -208 160 -286 225 -77 64 -145 118 -150 120 -5 2 -23 24 -40 49 -17 25
-69 85 -116 134 l-84 89 -7 137 c-6 111 -4 148 10 203 l16 66 172 165 172 164
44 -24 c25 -13 59 -23 75 -24 22 0 42 -11 69 -39 21 -21 56 -47 77 -57 35 -15
49 -16 117 -6 69 11 80 16 112 49 19 21 61 56 95 78 56 37 60 43 65 85 11 90
136 237 252 296 78 39 94 59 110 138 14 72 -2 194 -36 270 -53 117 -244 295
-340 316 -28 6 -80 28 -116 50 -89 54 -240 86 -268 58z m-717 -1702 l0 -124
-65 58 c-74 66 -115 109 -109 113 6 4 163 75 169 76 3 1 5 -55 5 -123z m-1951
-553 c25 -165 24 -167 -40 -248 -91 -113 -120 -182 -139 -322 -14 -113 -14
-124 5 -228 15 -88 29 -128 70 -211 68 -134 142 -213 267 -284 53 -30 93 -59
96 -71 3 -10 13 -22 24 -26 10 -3 52 -34 93 -68 114 -93 226 -177 314 -233
l79 -50 -54 -10 c-141 -28 -305 -23 -443 13 -323 85 -586 347 -671 671 -29
109 -47 331 -35 432 27 239 88 399 210 554 44 56 185 188 201 188 3 0 14 -48
23 -107z m17 -383 c-6 -55 -11 -121 -11 -145 l0 -45 -56 0 -57 0 6 60 c4 33
16 79 28 103 24 48 91 139 97 132 2 -2 -1 -49 -7 -105z m2516 31 c38 -32 79
-70 92 -85 23 -24 23 -26 5 -26 -10 -1 -68 -7 -128 -14 -76 -9 -109 -9 -111
-2 -1 6 -7 43 -12 83 l-8 72 30 15 c48 24 60 20 132 -43z m3251 -32 c269 -68
489 -294 564 -578 23 -90 28 -265 9 -356 -86 -406 -468 -688 -862 -635 -171
23 -315 90 -435 203 -190 178 -282 425 -253 682 10 89 57 251 72 248 5 0 137
-85 295 -189 178 -116 295 -198 307 -217 62 -94 170 -96 239 -4 26 35 26 109
0 144 -37 50 -68 65 -131 67 -58 1 -60 3 -327 176 -148 96 -274 178 -280 183
-7 5 19 37 70 86 197 188 465 258 732 190z m-5851 -333 c25 -50 35 -88 44
-170 10 -81 10 -109 1 -118 -18 -18 -61 91 -83 211 -10 58 -19 113 -19 123 0
37 27 16 57 -46z m2270 -143 c-14 -246 -235 -558 -481 -683 -65 -33 -239 -89
-280 -90 -5 0 28 38 73 85 136 142 223 293 299 520 16 50 36 125 43 167 l13
77 110 4 c61 1 137 4 170 5 l59 2 -6 -87z m-1102 45 c25 -12 45 -25 45 -29 0
-20 -33 -95 -58 -132 -54 -77 -165 -188 -238 -238 -40 -26 -76 -50 -82 -51 -5
-2 -36 38 -69 87 -56 83 -60 93 -54 130 10 64 38 91 138 129 49 19 130 54 179
79 49 26 90 46 91 46 1 1 23 -9 48 -21z m539 -42 c-7 -35 -25 -94 -39 -131
-32 -85 -133 -272 -188 -345 -58 -79 -175 -190 -256 -245 l-71 -46 -77 16
c-109 22 -138 32 -218 72 -86 44 -81 39 -63 60 9 10 19 28 22 41 4 12 11 22
15 22 8 0 24 54 23 75 -1 6 35 33 79 60 132 82 300 273 331 377 6 21 17 38 25
38 8 0 31 9 53 20 34 18 130 31 361 49 15 1 15 -5 3 -63z"/>
</g>
</svg>
