<?xml version="1.0" standalone="no"?>
<!DOCTYPE svg PUBLIC "-//W3C//DTD SVG 20010904//EN"
"http://www.w3.org/TR/2001/REC-SVG-20010904/DTD/svg10.dtd">
<svg version="1.0" xmlns="http://www.w3.org/2000/svg"
width="52.343096pt" height="36.000000pt" viewBox="0 0 52.343096 36.000000"
preserveAspectRatio="xMidYMid meet">
<g transform="translate(0.000000,36.000000) scale(0.003766,-0.003766)"
fill="#f2f2f2" stroke="none">
<path d="M10702 8743 c-180 -240 -197 -267 -196 -309 1 -41 28 -113 104 -279
106 -231 107 -232 254 -382 101 -104 136 -146 129 -155 -13 -18 -114 -267
-129 -318 -4 -14 -30 -59 -59 -100 -29 -41 -69 -106 -89 -143 -36 -68 -36 -69
-19 -99 21 -35 109 -118 126 -118 10 0 131 -250 124 -256 -1 -1 -64 -43 -140
-93 l-138 -92 -49 16 c-28 9 -52 20 -55 25 -3 5 20 24 51 42 l56 33 -6 50
c-11 97 -25 160 -44 200 -10 22 -34 72 -52 112 -25 56 -42 78 -74 100 -22 15
-67 54 -98 88 -47 49 -59 68 -64 105 -16 111 -43 197 -84 265 -92 150 -126
177 -279 223 -75 22 -105 25 -236 25 -202 0 -303 -23 -490 -113 -44 -21 -107
-46 -140 -55 -172 -49 -236 -88 -234 -144 1 -44 14 -65 60 -93 72 -45 293
-155 325 -161 16 -3 67 -13 114 -21 97 -17 138 -31 195 -65 54 -33 145 -129
145 -154 0 -24 -42 -65 -75 -73 -29 -7 -30 -15 -9 -56 9 -17 29 -63 46 -102
16 -39 32 -76 35 -83 4 -9 -11 -11 -63 -6 -68 6 -70 7 -202 107 -156 117 -251
186 -257 186 -3 0 -28 17 -57 38 -139 100 -281 174 -337 175 -20 0 -66 -3
-104 -7 -68 -9 -97 -3 -177 39 -14 7 -59 20 -100 29 -41 8 -118 26 -170 39
-140 36 -211 48 -343 58 -66 5 -194 17 -286 26 -91 10 -206 18 -256 18 -81 0
-99 -4 -183 -38 -200 -82 -454 -276 -818 -622 -166 -159 -212 -220 -273 -365
-35 -81 -49 -98 -100 -121 -73 -33 -381 -38 -646 -10 -503 52 -754 119 -1129
302 -87 43 -107 49 -163 49 -35 0 -80 -7 -100 -15 -44 -19 -40 -19 -53 5 -8
16 -7 38 6 90 32 132 8 241 -71 329 -45 50 -77 58 -470 116 -329 49 -381 57
-525 85 -80 16 -227 47 -325 70 -364 85 -344 82 -433 75 -46 -3 -93 -10 -105
-14 -22 -8 -129 22 -184 53 -50 28 -105 46 -138 46 -18 0 -49 7 -68 15 -20 8
-43 15 -52 15 -31 0 -15 -46 35 -102 28 -31 50 -58 50 -61 0 -2 -27 -14 -59
-26 -55 -20 -64 -28 -107 -93 l-47 -70 17 -74 c10 -41 27 -98 38 -126 11 -29
20 -60 19 -68 0 -8 -2 -28 -3 -44 -3 -26 5 -34 82 -83 47 -30 120 -72 162 -93
42 -22 97 -53 123 -69 l47 -30 -44 -11 c-79 -22 -332 -98 -408 -123 -41 -14
-181 -56 -310 -93 -177 -51 -248 -67 -288 -66 -96 4 -205 31 -276 68 -64 33
-74 36 -165 36 -82 1 -103 -3 -146 -23 -53 -26 -62 -43 -64 -115 l-1 -40 72
-22 c40 -12 113 -33 163 -46 49 -14 91 -30 93 -35 2 -6 10 -11 18 -11 8 0 14
-4 14 -9 0 -5 11 -12 24 -15 46 -11 43 -65 -15 -256 -25 -82 -41 -104 -68 -95
-43 13 -79 -4 -106 -52 -42 -75 -42 -86 2 -122 l38 -31 -18 -51 c-10 -28 -42
-105 -71 -172 -30 -67 -68 -157 -86 -200 -24 -56 -37 -76 -47 -72 -40 15 -66
16 -93 5 -41 -17 -38 -33 15 -71 25 -18 45 -38 45 -45 0 -7 -14 -50 -31 -96
-67 -182 -71 -196 -59 -218 24 -45 102 -49 147 -7 13 11 62 92 110 179 61 111
109 184 158 240 75 85 82 96 195 313 40 77 76 145 80 150 4 6 21 35 38 65 17
30 51 91 76 135 25 44 46 86 46 93 0 8 26 45 58 82 56 64 60 67 83 54 55 -31
85 -17 158 72 13 16 33 39 44 51 24 27 18 58 -18 101 l-25 30 62 6 c35 4 119
13 188 22 69 8 163 19 210 24 254 28 364 41 443 51 137 17 311 -8 432 -61 22
-10 205 -110 405 -222 448 -252 607 -332 685 -349 126 -26 241 -57 270 -73 17
-9 35 -16 41 -16 13 0 130 -76 139 -90 6 -9 17 -64 32 -146 4 -28 -4 -40 -94
-135 -105 -112 -129 -140 -208 -234 -28 -33 -59 -70 -71 -83 l-21 -23 -74 30
c-41 16 -93 39 -116 50 -23 12 -50 21 -59 21 -10 0 -25 6 -33 13 -20 17 -96
45 -333 124 -133 43 -148 41 -111 -21 20 -33 38 -49 70 -61 34 -13 135 -85
178 -126 7 -7 -113 37 -190 70 -35 15 -287 71 -365 81 -113 14 -382 12 -506
-4 -193 -26 -328 -61 -515 -134 -64 -25 -234 -114 -290 -151 -34 -23 -63 -41
-66 -41 -2 0 -46 -31 -98 -70 -276 -204 -540 -562 -670 -908 -88 -235 -138
-595 -117 -841 17 -199 67 -412 142 -601 75 -191 208 -421 292 -503 10 -10 18
-22 18 -27 0 -12 155 -170 240 -245 90 -80 208 -169 272 -205 105 -61 284
-146 328 -157 25 -6 97 -25 160 -42 175 -47 490 -71 680 -52 240 24 639 97
665 122 5 5 16 9 25 9 8 0 37 11 64 25 27 14 55 25 63 25 17 0 206 117 302
187 97 71 311 286 382 383 147 202 228 355 309 585 26 74 70 258 70 292 0 20
4 24 18 18 28 -11 123 -41 174 -55 l47 -12 -21 -41 c-51 -101 -1 -196 105
-197 31 0 45 8 90 52 72 70 163 108 261 108 70 0 74 -1 113 -37 34 -33 172
-117 343 -211 25 -13 50 -31 56 -38 6 -8 27 -19 45 -26 19 -6 75 -34 124 -62
l90 -51 120 -6 c70 -3 157 -15 210 -28 50 -12 128 -31 175 -42 47 -11 148 -36
225 -56 156 -39 150 -39 465 -4 141 16 220 17 900 8 547 -7 766 -7 826 2 44 6
146 11 227 11 127 0 156 3 224 25 94 30 153 65 215 132 91 99 140 236 141 398
0 89 0 91 -72 265 -95 229 -128 317 -157 418 -24 87 -58 298 -73 462 -9 95 -9
95 18 118 14 13 38 25 53 29 15 3 36 14 47 24 11 11 29 19 40 19 11 0 30 4 44
9 16 6 53 3 118 -10 96 -19 158 -14 175 13 4 7 31 105 60 218 29 113 91 358
139 545 48 187 95 374 106 415 25 98 24 117 -6 156 -28 37 -32 66 -11 83 10 9
36 7 107 -8 52 -11 110 -22 130 -25 28 -5 37 -12 47 -39 14 -39 16 -243 3
-251 -5 -3 -17 -38 -26 -77 -33 -132 -8 -249 80 -383 l45 -69 -52 -46 c-177
-157 -398 -476 -493 -712 -20 -52 -46 -115 -56 -141 -11 -26 -19 -49 -19 -52
0 -11 54 -6 103 9 26 8 47 10 47 5 0 -5 -9 -33 -19 -62 -82 -223 -107 -580
-60 -873 27 -168 103 -395 194 -576 139 -274 385 -551 637 -715 88 -57 237
-144 247 -144 4 0 27 -12 52 -28 24 -15 98 -42 164 -61 66 -18 140 -39 165
-47 25 -8 111 -21 190 -29 80 -9 153 -18 162 -21 9 -3 137 2 285 11 248 14
275 18 363 46 156 51 174 58 231 94 30 18 75 45 100 58 226 118 469 310 606
480 64 79 163 214 163 222 0 2 17 33 38 67 104 174 189 404 227 613 111 618
-78 1239 -514 1688 -162 167 -336 294 -529 387 -59 28 -123 59 -142 68 -49 24
-51 48 -3 56 21 3 63 6 94 6 32 0 63 6 75 14 18 14 16 16 -31 36 -137 59 -342
117 -515 146 -146 25 -491 25 -645 -1 -108 -17 -341 -76 -373 -94 -14 -8 -23
4 -55 67 -50 101 -111 242 -106 246 2 2 31 10 64 19 173 44 365 104 565 177
130 47 149 79 73 118 l-38 20 35 15 c19 8 60 25 90 37 30 11 64 25 75 30 37
15 80 29 115 36 19 3 41 10 50 14 24 12 124 31 261 49 180 23 217 50 248 184
6 26 11 71 11 100 -1 92 -27 261 -47 308 -29 66 -126 199 -214 294 -20 22 -39
55 -43 74 -3 18 -34 90 -67 160 -55 112 -63 135 -68 206 l-6 80 -94 140 c-51
77 -147 217 -212 311 l-119 171 -29 149 c-52 259 -59 318 -41 345 26 39 19
135 -16 199 -45 86 -194 229 -283 273 -40 20 -87 37 -102 37 l-29 0 0 -72 c0
-68 -1 -70 -18 -55 -36 32 -109 58 -149 52 -35 -6 -40 -3 -60 27 -12 18 -33
44 -45 58 -13 14 -63 71 -112 128 -48 56 -89 102 -91 102 -1 0 -11 -12 -23
-27z m78 -297 c19 -26 56 -73 81 -104 100 -126 104 -136 117 -337 7 -95 9
-102 42 -144 l35 -43 60 6 61 6 37 -49 c35 -46 117 -223 117 -254 0 -7 9 -24
20 -37 17 -19 18 -26 8 -36 -23 -22 -158 13 -158 41 0 23 -71 162 -89 175 -4
3 -39 41 -78 85 -38 44 -89 100 -112 125 -24 25 -59 70 -78 100 -37 57 -192
364 -231 458 l-22 54 42 42 42 42 36 -42 c19 -23 51 -63 70 -88z m-89 -3633
c134 -278 141 -295 132 -304 -5 -5 -45 -32 -88 -59 l-79 -50 -18 34 c-46 90
-128 324 -128 366 0 25 86 160 102 160 4 0 40 -66 79 -147z m-5831 -3 c59 -29
114 -61 130 -75 36 -31 234 -146 325 -189 55 -26 157 -81 226 -123 l127 -77
-5 -60 c-3 -34 -10 -69 -14 -78 -5 -9 -9 -28 -9 -41 0 -27 -37 -87 -81 -131
l-30 -29 -165 22 c-188 25 -218 32 -399 94 -207 71 -408 152 -565 226 -80 38
-174 81 -210 96 -36 15 -68 30 -72 34 -4 4 90 72 209 151 253 169 288 190 328
200 46 12 166 0 205 -20z m5628 -270 c16 -41 43 -104 60 -140 16 -36 28 -67
25 -70 -6 -7 -48 49 -79 104 -31 56 -54 137 -53 186 0 40 0 40 47 -80z m1657
-626 c337 -77 647 -316 809 -624 l45 -86 -18 -30 c-16 -26 -138 -124 -155
-124 -3 0 -23 36 -45 80 -38 77 -114 184 -170 241 -188 189 -343 284 -544 333
l-92 23 -13 49 c-7 27 -14 68 -15 92 -4 76 32 84 198 46z m-10372 -125 l57
-12 1 -51 c1 -104 10 -127 61 -157 25 -15 56 -29 69 -31 19 -2 12 -9 -39 -41
-63 -39 -164 -131 -218 -199 l-30 -38 -134 15 c-153 17 -188 28 -196 61 -16
62 157 293 341 454 13 12 22 12 88 -1z m9484 -103 c-3 -7 0 -22 7 -32 6 -11
17 -31 24 -46 11 -27 9 -29 -46 -69 -31 -23 -70 -54 -87 -70 l-30 -28 -47 36
c-27 19 -48 39 -48 44 0 6 13 14 28 20 18 6 39 28 57 59 16 28 45 61 65 74 39
28 85 35 77 12z m-2202 -297 c-42 -191 -47 -226 -42 -314 6 -120 27 -176 162
-445 l113 -226 -17 -51 c-30 -87 -89 -148 -176 -180 -18 -7 -153 -14 -340 -17
-170 -3 -337 -10 -370 -15 -154 -25 -431 -34 -854 -28 -540 7 -789 27 -778 61
9 28 74 32 417 25 190 -4 438 -8 552 -8 l208 -1 13 33 c27 64 51 68 207 33 73
-17 170 -14 170 4 0 4 39 9 88 12 73 4 94 9 129 31 52 33 86 82 113 164 11 34
33 83 49 110 17 26 51 107 76 178 26 72 67 168 91 215 40 76 46 99 63 218 15
108 22 136 40 153 11 11 21 25 21 31 0 16 74 112 77 101 2 -6 -3 -44 -12 -84z
m1794 -209 l10 -30 -45 0 c-47 0 -94 23 -94 46 0 7 10 32 22 55 l22 42 37 -42
c20 -23 42 -55 48 -71z m-9371 -77 c95 -16 103 -19 98 -38 -61 -233 -62 -393
-1 -572 32 -94 105 -220 168 -290 l35 -38 -38 -88 c-45 -105 -77 -154 -105
-161 -14 -4 -34 9 -75 52 -169 175 -282 403 -325 661 -30 177 -13 452 30 483
17 13 106 9 213 -9z m9292 -107 c0 -8 4 -16 9 -18 5 -1 12 -20 16 -40 7 -35 5
-38 -37 -68 -23 -17 -49 -35 -57 -40 -18 -10 -17 -166 2 -188 7 -8 17 -31 22
-51 10 -34 14 -37 75 -51 50 -12 66 -20 68 -35 19 -117 144 -362 243 -477 27
-31 49 -62 49 -68 0 -6 -15 -44 -34 -85 -31 -67 -56 -95 -86 -95 -20 0 -150
143 -205 225 -149 223 -215 438 -215 702 0 75 5 165 12 201 10 55 16 67 42 83
37 23 96 26 96 5z m2296 -24 c6 -10 17 -72 25 -140 28 -261 -43 -555 -190
-787 -53 -85 -74 -111 -159 -198 -61 -63 -70 -68 -99 -64 -57 10 -179 107
-135 107 15 0 134 121 184 186 158 206 230 503 184 762 -12 71 -12 74 8 87
102 66 161 81 182 47z m-9630 -298 c71 -42 152 -89 181 -105 33 -19 53 -39 57
-54 6 -24 -42 -166 -109 -324 -34 -80 -123 -212 -178 -263 -72 -68 -110 -73
-180 -27 -52 34 -146 124 -194 185 l-32 41 35 34 c36 34 122 154 157 217 35
66 76 208 83 290 6 75 9 82 29 82 11 0 79 -34 151 -76z m-1458 -657 c42 -26
142 -67 217 -88 72 -20 351 -18 426 3 61 18 157 56 176 71 9 7 38 -12 97 -62
146 -124 186 -178 158 -216 -22 -32 -196 -96 -352 -131 -105 -24 -357 -24
-465 0 -138 30 -218 56 -294 94 -106 53 -121 66 -121 110 0 56 85 242 110 242
6 0 27 -10 48 -23z m9352 -182 c49 -42 210 -109 335 -141 98 -25 343 -25 435
0 94 25 141 42 217 76 l67 30 48 -47 c80 -79 76 -103 -24 -154 -146 -74 -381
-129 -548 -129 -95 0 -277 21 -355 41 -94 24 -221 80 -259 115 -36 33 -38 38
-32 75 3 22 18 69 32 104 24 60 27 64 47 54 12 -7 29 -17 37 -24z"/>
</g>
</svg>
