<?xml version="1.0" standalone="no"?>
<!DOCTYPE svg PUBLIC "-//W3C//DTD SVG 20010904//EN"
"http://www.w3.org/TR/2001/REC-SVG-20010904/DTD/svg10.dtd">
<svg version="1.0" xmlns="http://www.w3.org/2000/svg"
width="50.415755pt" height="36.000000pt" viewBox="0 0 50.415755 36.000000"
preserveAspectRatio="xMidYMid meet">
<g transform="translate(0.000000,36.000000) scale(0.007877,-0.007877)"
fill="#f2f2f2" stroke="none">
<path d="M1365 4053 c-61 -7 -74 -14 -105 -52 l-31 -40 56 -93 c58 -97 83
-166 110 -310 l17 -88 -25 -30 c-51 -60 -47 -120 28 -410 19 -74 35 -139 35
-145 0 -5 -22 27 -49 72 -72 120 -119 179 -202 258 -87 82 -189 146 -291 183
-62 22 -90 26 -183 27 -126 0 -185 -15 -274 -72 -215 -137 -333 -422 -317
-763 14 -330 126 -619 330 -853 138 -159 298 -251 485 -277 186 -26 373 64
491 235 l33 47 56 -5 c31 -4 139 -11 241 -18 102 -6 248 -19 325 -28 l140 -16
1 -170 c1 -232 31 -356 134 -553 133 -254 359 -464 605 -563 295 -118 619 -77
845 105 116 94 207 238 255 401 21 71 28 120 32 231 l6 140 86 -23 c118 -33
293 -41 381 -19 161 40 320 150 415 285 41 58 63 81 83 85 15 3 72 13 127 21
55 9 136 22 180 30 44 7 100 16 125 20 111 15 377 59 420 70 27 7 25 9 157
-161 l32 -42 -92 -22 c-130 -31 -123 -27 -102 -50 13 -14 31 -20 60 -20 62 0
146 18 165 35 9 8 27 15 39 15 31 0 67 26 81 60 14 34 12 36 -105 180 -34 41
-64 80 -68 87 -5 7 11 36 38 71 83 107 105 235 65 382 -29 105 -75 168 -176
241 -102 74 -145 90 -259 98 l-89 6 -84 103 c-46 57 -82 105 -79 108 3 3 47 7
98 9 51 2 95 8 97 13 1 5 -7 21 -19 37 -22 27 -24 28 -106 22 -54 -3 -90 -10
-101 -20 -9 -8 -28 -18 -42 -22 -80 -23 -90 -65 -33 -137 82 -102 112 -143
114 -153 2 -11 -49 -43 -72 -44 -8 -1 -34 -10 -57 -21 -22 -11 -45 -20 -50
-20 -5 0 -15 -7 -22 -15 -7 -9 -33 -25 -57 -35 -153 -70 -202 -90 -214 -90 -5
0 -30 32 -55 72 -254 396 -773 513 -1123 253 l-64 -47 6 63 c5 60 8 66 52 107
30 29 52 42 64 39 24 -6 46 7 37 22 -12 19 -39 12 -104 -29 -36 -23 -72 -55
-84 -75 l-21 -36 -21 20 c-12 12 -28 21 -34 21 -24 0 -22 28 7 101 16 41 41
106 57 144 42 108 51 118 93 111 66 -12 76 -11 76 3 0 26 -124 51 -180 35 -36
-9 -101 -121 -139 -243 -20 -62 -44 -120 -52 -128 -10 -10 -12 -19 -5 -27 7
-8 4 -32 -9 -75 -28 -87 -26 -146 6 -210 15 -28 37 -59 51 -68 16 -11 22 -21
17 -32 -14 -35 -44 -158 -44 -183 0 -16 -2 -28 -5 -28 -2 0 -46 22 -97 49
-197 104 -396 146 -572 122 -49 -7 -107 -19 -129 -27 l-39 -14 -46 45 -47 45
45 42 c32 31 53 43 75 43 20 0 31 5 33 18 3 14 -4 17 -33 17 -28 0 -48 -9 -84
-38 -62 -52 -73 -54 -106 -26 -15 13 -32 24 -37 24 -4 0 -8 8 -8 18 0 23 68
232 80 247 10 12 18 44 19 80 2 35 18 48 67 52 56 6 72 16 56 36 -14 16 -44
11 -167 -27 -59 -18 -71 -25 -75 -46 -3 -14 -17 -45 -31 -70 -15 -25 -37 -75
-49 -112 -12 -38 -25 -68 -28 -68 -4 0 -31 21 -60 46 -108 95 -264 321 -392
569 -141 273 -209 355 -310 371 -35 6 -38 9 -49 56 -16 70 -14 92 9 113 11 10
20 26 20 35 0 22 -128 282 -143 292 -12 8 -57 8 -112 1z m-617 -1129 c2 -279
-2 -324 -35 -324 -10 0 -77 35 -148 78 -72 42 -142 83 -156 90 -14 8 -38 24
-54 36 l-29 23 24 64 c66 180 220 312 355 306 l40 -2 3 -271z m194 219 c92
-48 205 -156 271 -257 50 -76 107 -186 107 -205 0 -5 -46 -12 -102 -16 -112
-7 -211 -29 -229 -51 -7 -8 -30 -14 -55 -14 -52 0 -49 -13 -64 250 -6 102 -13
218 -17 258 -4 54 -3 72 7 72 6 0 43 -16 82 -37z m2750 -462 l32 -29 -17 -54
c-9 -30 -17 -66 -17 -79 -1 -13 -7 -35 -14 -47 l-13 -24 -26 32 c-31 37 -32
40 -12 143 8 43 15 81 15 83 0 12 23 1 52 -25z m-3231 -97 c79 -58 145 -110
147 -114 2 -5 -4 -19 -12 -32 -15 -22 -14 -27 4 -63 11 -22 20 -40 20 -41 0
-1 -14 -5 -31 -9 -28 -6 -31 -10 -26 -39 2 -17 1 -38 -3 -46 -4 -8 -4 -41 1
-73 9 -56 8 -61 -28 -129 l-36 -70 -19 24 c-61 80 -139 277 -163 416 -16 91
-20 282 -7 282 5 0 74 -48 153 -106z m4016 19 c102 -34 172 -74 238 -135 52
-48 145 -161 145 -178 0 -4 -28 -19 -62 -34 -131 -54 -323 -126 -335 -126 -7
0 -13 8 -13 18 0 10 -15 26 -32 37 -18 10 -35 21 -38 25 -3 4 -25 11 -50 16
-36 7 -46 14 -48 32 -2 12 -9 22 -16 22 -12 0 -25 44 -42 145 -11 64 -28 81
-86 88 -40 5 -56 3 -77 -13 -31 -22 -159 -40 -147 -21 14 22 111 87 164 110
73 30 120 39 229 40 76 1 107 -4 170 -26z m-3086 -199 c9 -82 10 -184 2 -184
-3 0 -57 33 -118 74 -105 70 -143 102 -134 110 7 7 224 64 234 62 6 -2 13 -29
16 -62z m268 10 c89 -48 165 -113 359 -301 116 -113 162 -164 162 -180 0 -30
-19 -29 -135 1 -78 20 -249 87 -405 157 l-46 20 0 142 c0 78 -3 154 -7 170 -4
15 -4 27 -1 27 4 0 37 -16 73 -36z m3582 -95 c-23 -46 -41 -89 -41 -95 0 -13
95 10 118 28 16 14 15 -2 -2 -25 -14 -18 -196 -62 -207 -49 -10 11 -39 103
-39 123 0 11 13 24 33 32 29 14 84 37 147 64 14 6 26 9 28 8 2 -2 -15 -40 -37
-86z m-1197 46 c17 -26 19 -60 10 -142 l-7 -52 -43 6 c-49 6 -50 4 -35 -57 20
-76 22 -92 12 -86 -16 10 -61 -5 -61 -20 0 -30 -36 -83 -60 -87 -20 -4 -35 5
-72 41 -47 46 -48 48 -48 110 0 75 32 199 66 258 27 47 30 47 170 52 45 2 54
-1 68 -23z m-2941 -97 c67 -35 124 -65 127 -68 3 -3 37 -21 75 -41 56 -30 71
-42 73 -63 2 -17 -1 -26 -11 -26 -20 0 -139 42 -255 90 -92 38 -105 47 -123
81 -18 35 -26 89 -14 89 3 0 61 -28 128 -62z m3809 -97 c5 -18 7 -35 5 -37 -7
-7 -193 -42 -257 -48 -52 -4 -61 -3 -45 6 11 6 22 15 25 19 8 12 232 98 249
96 8 -1 19 -17 23 -36z m-4054 3 c18 -10 56 -69 112 -171 47 -86 87 -160 89
-165 2 -6 -8 -8 -25 -4 -16 3 -69 12 -119 21 l-90 16 -2 42 c-5 87 -2 129 11
155 11 22 11 36 1 75 -6 26 -10 47 -7 47 2 0 16 -7 30 -16z m-88 -93 c0 -10
-9 -40 -19 -67 -10 -27 -25 -69 -32 -93 -12 -40 -11 -45 6 -57 10 -8 32 -16
49 -18 17 -3 93 -15 170 -28 l139 -23 21 -43 c24 -51 21 -55 -64 -73 -98 -21
-217 7 -323 74 -62 40 -137 104 -137 118 0 5 32 59 71 119 58 90 75 110 95
110 17 0 24 -6 24 -19z m450 -66 c63 -24 116 -48 118 -54 4 -11 -45 -100 -75
-138 -22 -27 -70 -21 -83 11 -4 11 -25 57 -47 101 -66 137 -66 139 -46 130 10
-4 70 -27 133 -50z m4158 -55 c42 -91 148 -174 287 -226 20 -7 -50 -21 -295
-58 -63 -9 -155 -24 -203 -33 -48 -9 -90 -13 -93 -11 -2 3 7 41 22 84 17 51
28 109 31 166 l5 87 52 10 c28 6 71 14 96 19 72 16 74 15 98 -38z m-1866 -39
c30 -27 32 -31 17 -46 -17 -17 -130 -40 -154 -31 -46 17 26 103 87 105 10 1
32 -12 50 -28z m1434 -28 c-18 -100 -32 -149 -61 -206 l-32 -62 -74 -6 c-150
-13 -379 -31 -554 -43 -178 -13 -180 -13 -197 8 -10 12 -22 36 -27 54 -8 28
-6 36 15 57 13 13 24 31 24 39 0 15 11 20 73 31 29 5 47 1 73 -14 26 -16 55
-22 112 -23 91 -2 117 9 184 78 39 40 50 46 72 40 15 -4 31 -17 36 -31 9 -23
15 -25 65 -25 79 0 95 11 95 65 l0 45 50 0 c28 0 50 4 50 9 0 12 24 18 69 20
33 1 33 1 27 -36z m-3326 -3 c19 -5 105 -21 190 -35 148 -24 318 -70 369 -99
20 -11 -8 -13 -200 -11 -192 2 -475 20 -488 31 -2 2 1 9 6 16 6 7 18 34 28 61
19 51 30 55 95 37z m953 -295 c48 -15 118 -31 155 -36 37 -5 94 -13 127 -19
33 -5 63 -10 68 -10 14 0 7 -64 -9 -82 -15 -15 -16 -29 -7 -105 9 -73 37 -206
72 -333 9 -35 56 -41 64 -8 4 13 21 31 39 41 32 17 35 16 84 -2 69 -27 124
-19 189 27 68 48 87 69 114 125 21 42 23 58 17 117 -3 38 -8 75 -12 83 -3 10
4 16 26 21 17 3 58 22 91 41 56 32 66 35 142 35 45 0 87 -4 94 -8 25 -16 48
-162 47 -312 0 -126 -3 -153 -23 -210 -81 -223 -217 -352 -429 -405 -86 -22
-238 -15 -334 15 -91 28 -202 84 -268 135 -252 195 -390 469 -390 775 0 125
10 165 37 151 10 -5 57 -21 106 -36z m2207 -54 c0 -26 -169 -124 -248 -143
-66 -17 -237 -13 -313 6 -75 20 -143 55 -147 78 -4 20 5 21 353 44 138 9 252
18 254 20 9 8 101 3 101 -5z m-1365 -203 c18 -97 -45 -196 -144 -225 -55 -15
-70 -10 -71 23 -1 53 94 172 175 221 30 18 34 16 40 -19z"/>
</g>
</svg>
