<?xml version="1.0" standalone="no"?>
<!DOCTYPE svg PUBLIC "-//W3C//DTD SVG 20010904//EN"
"http://www.w3.org/TR/2001/REC-SVG-20010904/DTD/svg10.dtd">
<svg version="1.0" xmlns="http://www.w3.org/2000/svg"
width="50.751880pt" height="36.000000pt" viewBox="0 0 50.751880 36.000000"
preserveAspectRatio="xMidYMid meet">
<g transform="translate(0.000000,36.000000) scale(0.004511,-0.004511)"
fill="#f2f2f2" stroke="none">
<path d="M5633 7426 c-94 -18 -207 -74 -260 -128 -23 -24 -60 -77 -82 -118
-36 -69 -139 -361 -154 -438 -14 -70 -39 -141 -57 -162 -11 -13 -20 -32 -20
-44 -1 -12 -7 -32 -15 -46 -8 -14 -14 -34 -15 -45 0 -11 -13 -48 -30 -83 -24
-51 -28 -68 -19 -84 8 -15 5 -34 -15 -84 -14 -35 -26 -77 -26 -92 0 -30 -19
-124 -45 -222 -13 -50 -16 -91 -13 -180 3 -63 0 -146 -7 -185 -6 -41 -8 -92
-3 -125 8 -60 6 -72 -24 -170 -32 -103 -46 -181 -34 -177 6 2 17 24 25 50 18
58 31 60 32 5 0 -33 2 -38 9 -23 6 13 9 -13 9 -77 1 -102 -4 -128 -23 -128 -7
0 -21 -7 -32 -16 -18 -15 -18 -15 8 -10 14 3 34 9 44 13 14 5 16 2 10 -20 -4
-16 -2 -27 4 -27 5 0 10 8 10 19 0 10 7 24 15 31 13 11 15 5 15 -45 0 -50 -3
-60 -30 -85 -16 -15 -30 -33 -30 -39 0 -14 -1 -14 45 9 36 18 40 19 43 4 3
-13 7 -12 28 7 17 16 24 19 25 8 5 -69 4 -72 -21 -80 -14 -4 -131 -35 -260
-69 -129 -34 -246 -68 -260 -75 -24 -12 -154 -51 -270 -82 -30 -8 -69 -21 -87
-29 -17 -7 -39 -14 -48 -14 -9 0 -31 -7 -48 -15 -43 -20 -377 -134 -452 -154
-33 -9 -66 -21 -72 -28 -7 -6 -226 -96 -485 -199 -260 -103 -507 -203 -548
-222 -107 -48 -133 -60 -150 -66 -8 -3 -107 -53 -220 -112 -608 -313 -1208
-704 -1550 -1009 -83 -74 -370 -359 -370 -368 0 -5 -13 -28 -30 -52 -16 -24
-30 -47 -30 -51 0 -4 -8 -16 -18 -27 -12 -15 -14 -21 -4 -24 6 -3 12 -11 12
-18 0 -20 27 -32 90 -40 30 -3 71 -11 90 -16 53 -14 225 -46 315 -59 44 -6
107 -15 140 -20 33 -5 121 -14 195 -20 74 -5 169 -14 210 -20 251 -33 932 -48
1390 -31 398 14 758 43 1205 97 228 27 607 79 800 109 83 13 161 23 175 22 14
0 134 19 268 43 181 33 247 41 260 34 23 -15 32 -89 36 -332 4 -169 2 -202
-10 -202 -19 0 -18 -10 3 -25 13 -10 15 -16 6 -26 -6 -8 -14 -43 -18 -79 -4
-36 -14 -85 -23 -110 -8 -25 -14 -62 -13 -83 1 -26 -2 -36 -11 -35 -9 2 -12
-8 -10 -33 1 -20 -7 -60 -18 -89 -16 -39 -22 -82 -25 -174 -2 -66 -8 -152 -12
-191 -9 -72 -8 -415 1 -585 2 -52 5 -110 5 -127 l1 -33 390 0 390 0 -6 27
c-11 44 -16 47 -35 22 -10 -13 -19 -19 -19 -12 0 6 7 18 15 27 8 8 15 21 15
29 0 8 11 34 23 58 13 24 32 69 42 99 10 30 21 60 25 65 4 6 13 26 19 47 7 20
19 39 27 42 8 3 13 10 9 15 -3 6 8 49 25 98 17 48 46 133 65 188 50 148 133
337 155 350 13 8 95 128 93 136 -1 3 12 42 28 85 52 136 55 161 26 299 -9 44
-19 100 -23 125 -8 64 -33 294 -32 300 1 3 -1 12 -4 20 -3 8 -11 56 -18 105
-6 50 -17 129 -24 178 -7 48 -10 90 -7 92 2 3 16 5 31 5 14 0 30 4 36 9 5 5
54 21 109 36 121 32 202 55 315 89 47 15 119 35 160 47 41 11 89 27 107 35 17
8 39 14 48 14 9 0 31 7 48 15 43 20 377 134 452 154 33 9 66 21 72 28 7 6 226
96 485 199 260 103 507 203 548 222 107 48 133 60 150 66 8 3 107 53 220 112
608 313 1208 704 1550 1009 83 74 370 359 370 368 0 5 14 28 30 52 17 24 30
47 30 51 0 4 8 16 18 27 12 15 14 21 5 24 -7 3 -13 11 -13 18 0 20 -27 32 -90
40 -30 3 -71 11 -90 16 -53 14 -225 46 -315 59 -44 6 -107 15 -140 20 -33 5
-121 14 -195 20 -74 5 -169 14 -210 20 -251 33 -932 48 -1390 31 -487 -18
-904 -55 -1515 -136 -287 -38 -376 -52 -613 -90 -123 -20 -225 -35 -227 -33
-2 2 1 33 7 70 11 62 10 71 -15 145 -15 43 -31 93 -36 111 -6 20 -42 67 -94
122 -47 49 -107 117 -133 152 -26 35 -51 65 -55 68 -3 3 -21 34 -38 70 -18 36
-36 69 -42 74 -5 6 -9 17 -9 26 0 9 -11 26 -25 38 -14 12 -25 30 -25 40 0 10
-22 65 -50 121 -46 94 -80 202 -80 254 0 14 24 46 64 86 l65 64 62 -7 c64 -6
89 2 89 32 0 8 15 32 33 53 17 22 47 57 66 79 20 24 42 40 55 40 28 0 46 18
46 46 0 13 5 26 10 29 6 3 10 17 10 31 0 15 6 24 16 24 8 0 13 4 9 9 -6 10 14
62 28 72 14 10 21 137 9 162 -6 12 -13 45 -16 74 -3 28 -14 69 -25 91 -18 35
-19 52 -14 144 8 150 6 153 -135 154 -81 0 -117 5 -147 18 -53 24 -224 30
-322 12z m-623 -1135 c0 -6 -4 -13 -10 -16 -5 -3 -10 1 -10 9 0 9 5 16 10 16
6 0 10 -4 10 -9z"/>
<path d="M6069 6353 c-13 -16 -12 -17 4 -4 16 13 21 21 13 21 -2 0 -10 -8 -17
-17z"/>
<path d="M6221 6177 c-13 -21 -12 -21 5 -5 10 10 16 20 13 22 -3 3 -11 -5 -18
-17z"/>
<path d="M5931 124 c0 -11 3 -14 6 -6 3 7 2 16 -1 19 -3 4 -6 -2 -5 -13z"/>
</g>
</svg>
