<?xml version="1.0" encoding="UTF-8" standalone="no"?>

<svg
xmlns="http://www.w3.org/2000/svg"
xmlns:xlink="http://www.w3.org/1999/xlink"
width="22"
height="36"
viewBox="0 0 62.843914 103.74946"
version="1.1">
<defs>
<filter
style="color-interpolation-filters:sRGB"
id="filter4272"
height="1.624"
width="1.066"
y="-0.312"
x="-0.033">
</filter>
<linearGradient
id="linearGradient4786"
y2="615.979"
xlink:href="#linearGradient3776"
gradientUnits="userSpaceOnUse"
x2="238.399"
gradientTransform="matrix(-0.232,0,0,-0.040,176.47,467.74)"
y1="616.989"
x1="40.405" />
<linearGradient
id="linearGradient3776">
<stop
offset="0" />
<stop
stop-color="#1a1a1a"
offset=".112" />
<stop
stop-color="#808080"
offset=".158" />
<stop
stop-color="#e6e6e6"
offset=".209" />
<stop
stop-color="#e6e6e6"
offset=".265" />
<stop
stop-color="#333"
offset=".377" />
<stop
stop-color="#1a1a1a"
offset=".505" />
<stop
stop-color="#333"
offset=".591" />
<stop
stop-color="#b3b3b3"
offset=".693" />
<stop
stop-color="#b3b3b3"
offset=".729" />
<stop
stop-color="#1a1a1a"
offset=".826" />
<stop
offset="1" />
</linearGradient>
<linearGradient
id="linearGradient3863">
<stop
offset="0" />
<stop
stop-color="#333"
offset=".071" />
<stop
stop-color="#808080"
offset=".158" />
<stop
stop-color="#e6e6e6"
offset=".250" />
<stop
stop-color="#333"
offset=".351" />
<stop
stop-color="#333"
offset=".469" />
<stop
stop-color="#999"
offset=".566" />
<stop
stop-color="#999"
offset=".627" />
<stop
stop-color="#999"
offset=".714" />
<stop
stop-color="#1a1a1a"
offset=".826" />
<stop
stop-color="#1a1a1a"
offset=".897" />
<stop
stop-color="#808080"
offset="1" />
</linearGradient>
<linearGradient
id="linearGradient3901">
<stop
stop-color="#4a0"
offset="0" />
<stop
stop-color="#55d400"
offset=".101" />
<stop
stop-color="#55d400"
offset=".247" />
<stop
stop-color="#9f5"
offset=".378" />
<stop
stop-color="#9f5"
offset=".434" />
<stop
stop-color="#4a0"
offset=".575" />
<stop
stop-color="#4a0"
offset=".707" />
<stop
stop-color="#4a0"
offset=".792" />
<stop
stop-color="#112b00"
offset="1" />
</linearGradient>
<linearGradient
id="linearGradient3909">
<stop
stop-color="#fff"
offset="0" />
<stop
stop-color="#fff"
stop-opacity="0"
offset="1" />
</linearGradient>
<linearGradient
id="linearGradient4084">
<stop
offset="0" />
<stop stop-opacity="0"
offset="1" />
</linearGradient>
<filter
style="color-interpolation-filters:sRGB"
id="filter4272-1"
height="1.624"
width="1.066"
y="-0.312"
x="-0.033">
</filter>
<linearGradient
id="linearGradient4750"
y2="615.979"
xlink:href="#linearGradient3776"
gradientUnits="userSpaceOnUse"
x2="238.399"
gradientTransform="matrix(-0.232,0,0,-0.040,430.01,467.74)"
y1="616.989"
x1="40.405" />
<linearGradient
id="linearGradient4752"
y2="615.979"
xlink:href="#linearGradient3776"
gradientUnits="userSpaceOnUse"
x2="238.399"
gradientTransform="translate(257.5,-0.081)"
y1="616.989"
x1="40.405" />
<linearGradient
id="linearGradient4754"
y2="615.979"
xlink:href="#linearGradient3863"
gradientUnits="userSpaceOnUse"
x2="238.399"
gradientTransform="matrix(-1,0,0,-0.882,537.5,1180.7)"
y1="616.989"
x1="40.405" />
<linearGradient
id="linearGradient4756"
y2="645.539"
xlink:href="#linearGradient3986"
gradientUnits="userSpaceOnUse"
x2="496.579"
gradientTransform="matrix(1,0,0,0.387,0.916,476.99)"
y1="645.539"
x1="296.579" />
<linearGradient
id="linearGradient3986">
<stop stop-color="#a80"
offset="0" />
<stop stop-color="#fc0"
offset=".108" />
<stop stop-color="#fc0"
offset=".224" />
<stop stop-color="#fd5"
offset=".350" />
<stop stop-color="#fd5"
offset=".471" />
<stop stop-color="#d4aa00"
offset=".603" />
<stop stop-color="#fc0"
offset=".739" />
<stop stop-color="#d4aa00"
offset=".845" />
<stop stop-color="#a80"
offset="1" />
</linearGradient>
<linearGradient
id="linearGradient4758"
y2="645.539"
xlink:href="#linearGradient3986"
gradientUnits="userSpaceOnUse"
x2="496.579"
gradientTransform="matrix(-1,0,0,-0.028,794.07,693.88)"
y1="645.539"
x1="296.579" />
<linearGradient
id="linearGradient4760"
y2="487.359"
gradientUnits="userSpaceOnUse"
x2="302.790"
y1="487.359"
x1="317.859">
<stop stop-color="#fff"
offset="0" />
<stop stop-color="#fff"
stop-opacity="0"
offset="1" />
</linearGradient>
<linearGradient
id="linearGradient4762"
y2="623.320"
xlink:href="#linearGradient3909"
gradientUnits="userSpaceOnUse"
x2="73.830"
gradientTransform="translate(257.5,-0.081)"
y1="623.320"
x1="68.283" />
<linearGradient
id="linearGradient4764"
y2="643.909"
xlink:href="#linearGradient3994"
gradientUnits="userSpaceOnUse"
x2="459.25"
gradientTransform="translate(0.916,-5.899)"
y1="643.909"
x1="296.579" />
<linearGradient
id="linearGradient3994">
<stop stop-color="#e5ffd5"
offset="0" />
<stop stop-color="#e5ffd5"
stop-opacity="0"
offset="1" />
</linearGradient>
<linearGradient
id="linearGradient4766"
y2="622.840"
xlink:href="#linearGradient4084"
gradientUnits="userSpaceOnUse"
x2="736.340"
gradientTransform="translate(-263.25,-3.552)"
y1="622.840"
x1="722.210" />
</defs>
<g
transform="translate(-77.435,-58.405)">
<g
transform="matrix(0.264,0,0,0.264,3.686,-56.729)">
<path
d="m 281.83,528.12 c 0,8.089 -61.734.647.89,14.647.152 -137.89,-6.557 -137.89,-14.647,-8.089 61.734.647.89,-14.647.152 137.89,6.557 137.89,14.647"
transform="matrix(0.807,0,1,281.24,275.36)"
style="opacity:0.629;fill:#4d4d4d;filter:url(#filter4272-1)" />
<g>
<path
d="m 420.72,449.48 c 0,0 -15.476,0.201 -23.228,0.201 -7.752,0 -23.228,-0.201 -23.228,-0.201 v -14.124 c 0,0 15.476,-0.201 23.228,-0.201 7.752,0 23.228,0.201 23.228,0.201 z"
style="fill:url(#linearGradient4750)" />
<path
d="m 297.5,452.28 c 0,0 66.625,-5 100,-5 33.375,0 100,5 100,5 v 350 c 0,0 -66.625,5 -100,5 -33.375,0 -100,-5 -100,-5 z"
style="fill:url(#linearGradient4752)" />
<path
d="m 297.5,461.13 c 0,0 66.625,-4.761 100,-4.761 33.375,0 100,4.761 100,4.761 v 333.3 c 0,0 -66.625,4.761 -100,4.761 -33.375,0 -100,-4.761 -100,-4.761 z"/>
<path
d="m 497.5,781.66 c 0,0 -66.625,4.410 -100,4.410 -33.375,0 -100,-4.410 -100,-4.410 V 472.91 c 0,0 66.625,-4.410 100,-4.410 33.375,0 100,4.410 100,4.410 z"
style="fill:url(#linearGradient4754)" />
<path
d="m 497.5,780.55 c 0,0 -66.61,5.810 -100,5.810 -33.39,0 -100,-5.810 -100,-5.810 V 673.82 c 0,0 66.625,-1.524 100,-1.524 33.375,0 100,1.524 100,1.524 z"
style="fill:url(#linearGradient4756)" />
<path
d="m 297.5,671.65 c 0,0 66.625,-0.111 100,-0.111 33.375,0 100,0.111 100,0.111 v 7.816 c 0,0 -66.625,0.111 -100,0.111 -33.375,0 -100,-0.111 -100,-0.111 z"
style="fill:url(#linearGradient4758)" />
<path
d="m 316.68,775.6 c 0,0 -4.707,4.410 -7.066,4.410 -2.358,0 -7.066,-4.410 -7.066,-4.410 V 466.85 c 0,0 4.707,-4.410 7.066,-4.410 2.358,0 7.066,4.410 7.066,4.410 z"
style="opacity:0.6;fill:url(#linearGradient4760)" />
<path
d="m 331.32,777.62 c 0,0 -1.847,4.410 -2.772,4.410 -0.925,0 -2.772,-4.410 -2.772,-4.410 V 468.87 c 0,0 1.847,-4.410 2.772,-4.410 0.925,0 2.772,4.410 2.772,4.410 z"
style="fill:url(#linearGradient4762)" />
<path
d="m 397.5,499.05 c -33.375,0 -99.643,-1.110 -99.643,-1.110 l -0.357,280.14 c 90.564,-50.634 181.33,-195.87 159.34,-279.52 -19.587,-1.041 -44.114,0.490 -59.344,0.490 z"
style="opacity:0.253;fill:url(#linearGradient4764)" />
<path
d="m 473.1,773.67 c 0,0 -4.707,4.410 -7.066,4.410 -2.358,0 -7.066,-4.410 -7.066,-4.410 V 464.92 c 0,0 4.707,-4.410 7.066,-4.410 2.358,0 7.066,4.410 7.066,4.410 z"
style="opacity:0.6;fill:url(#linearGradient4766)" />
</g>
</g>
</g>
</svg>
