<?xml version="1.0" encoding="UTF-8" standalone="no"?>
<svg
xmlns:svg="http://www.w3.org/2000/svg"
xmlns="http://www.w3.org/2000/svg"
viewBox="0 0 150 150"
width="36"
height="36"
version="1.0">
<rect
transform="matrix(-0.7071,0.7071,0.7071,0.7071,0,0)"
ry="5"
height="106"
width="106"
y="52.87"
x="-53.26"
style="fill:#f00;stroke:#000;stroke-width:4;"/>
<path
style="fill:#000;"
d="m 27.91,76.43 c 0,-11.48 0.2,-20.95 0.4,-20.95 36.35,16.22 60.56,27.39 92.29,41.9 H 74.28 27.91 Z" />
</svg>
