<?xml version="1.0" standalone="no"?>
<!DOCTYPE svg PUBLIC "-//W3C//DTD SVG 20010904//EN"
"http://www.w3.org/TR/2001/REC-SVG-20010904/DTD/svg10.dtd">
<svg version="1.0" xmlns="http://www.w3.org/2000/svg"
width="52.116279pt" height="36.000000pt" viewBox="0 0 52.116279 36.000000"
preserveAspectRatio="xMidYMid meet">
<g transform="translate(0.000000,36.000000) scale(0.002990,-0.002990)"
fill="#f2f2f2" stroke="none">
<path d="M1234 11921 c-33 -9 -75 -26 -95 -38 -31 -20 -37 -30 -48 -89 -9 -41
-23 -77 -38 -95 -19 -22 -25 -41 -25 -77 0 -58 -43 -153 -75 -167 -13 -5 -23
-15 -23 -22 0 -6 -19 -27 -41 -47 -39 -33 -41 -38 -36 -77 6 -48 34 -81 91
-108 50 -23 78 -51 52 -51 -9 0 -19 -7 -22 -15 -7 -17 -34 -21 -34 -5 0 39
-85 -33 -117 -98 -31 -65 -26 -117 13 -159 50 -54 59 -71 42 -91 -18 -21 -35
-65 -43 -114 l-6 -37 96 -68 c52 -37 95 -72 95 -79 0 -17 -31 -76 -57 -107
-12 -16 -23 -37 -23 -48 0 -11 -16 -67 -35 -126 -28 -86 -35 -123 -35 -187 0
-45 -5 -99 -10 -121 -5 -22 -14 -85 -20 -140 -6 -55 -20 -137 -31 -181 -20
-78 -20 -85 -5 -144 9 -34 16 -70 16 -79 0 -10 14 -60 31 -112 44 -135 48
-153 37 -203 -10 -49 -8 -59 62 -286 38 -124 79 -272 100 -360 4 -19 15 -64
25 -100 9 -36 19 -76 22 -90 3 -14 9 -29 13 -35 11 -16 37 -95 56 -170 9 -38
22 -76 28 -84 7 -9 11 -79 11 -191 0 -174 0 -177 26 -211 14 -19 52 -86 83
-149 32 -63 70 -126 86 -140 30 -27 63 -83 99 -170 30 -71 95 -181 124 -207
12 -11 35 -23 50 -27 16 -4 59 -36 97 -71 37 -35 84 -71 104 -79 62 -26 105
-66 138 -130 32 -62 38 -89 61 -251 7 -57 20 -103 34 -125 18 -30 20 -45 16
-101 -4 -46 -1 -84 10 -120 9 -30 18 -70 22 -90 3 -19 13 -51 23 -70 9 -19 26
-63 36 -99 36 -128 59 -177 222 -467 18 -31 24 -57 24 -101 0 -32 10 -101 22
-153 33 -140 37 -354 8 -446 -27 -86 -59 -205 -60 -219 0 -6 13 -28 30 -49 16
-20 32 -53 36 -72 8 -43 -9 -104 -37 -129 -24 -22 -49 -77 -49 -108 0 -25 -25
-129 -42 -169 -16 -40 -40 -50 -88 -36 -32 10 -45 10 -64 -1 -36 -19 -85 -92
-102 -152 -17 -58 -119 -260 -176 -349 -24 -38 -69 -82 -134 -135 -140 -112
-286 -258 -449 -454 -116 -139 -146 -170 -185 -195 -33 -21 -205 -259 -255
-352 -11 -21 -43 -78 -71 -128 -29 -49 -63 -110 -77 -135 -14 -25 -37 -65 -51
-90 -14 -25 -26 -60 -26 -78 0 -18 -10 -62 -22 -96 -21 -61 -22 -68 -9 -172 7
-60 18 -115 23 -121 6 -7 25 -13 42 -13 17 0 42 -9 56 -20 26 -21 60 -26 75
-12 22 19 112 32 435 62 114 11 195 27 305 62 80 25 292 62 395 69 63 4 129
11 145 14 17 3 40 8 52 11 15 3 32 22 49 55 l25 51 -20 22 c-12 12 -21 28 -21
34 0 20 -61 112 -74 112 -7 0 -36 11 -64 25 -29 14 -61 25 -72 25 -11 0 -66
-16 -122 -35 -114 -39 -137 -41 -176 -21 -22 11 -33 32 -55 95 -45 133 -37
154 63 186 30 9 82 32 115 50 220 119 202 106 263 200 25 39 54 90 65 115 11
25 35 78 53 118 37 78 104 275 104 303 0 9 12 28 26 43 23 23 35 26 91 26 74
0 106 12 187 68 33 23 67 42 76 42 9 0 54 32 99 70 46 39 99 77 117 86 40 19
65 57 92 140 11 33 32 86 46 119 15 32 40 97 56 144 39 120 148 311 177 311 7
0 22 -19 33 -42 11 -25 34 -53 56 -68 51 -34 183 -225 184 -265 1 -56 -33
-250 -48 -267 -8 -9 -27 -20 -42 -23 -27 -6 -77 -53 -99 -92 -6 -11 -18 -43
-27 -69 -9 -27 -29 -75 -45 -108 -16 -32 -29 -72 -29 -90 0 -48 -46 -132 -85
-156 -20 -12 -32 -27 -29 -34 3 -7 -9 -27 -25 -44 -35 -34 -36 -41 -19 -89 13
-37 6 -52 -17 -33 -12 10 -16 8 -26 -14 -7 -14 -18 -26 -26 -26 -7 0 -18 -11
-23 -24 -5 -14 -19 -26 -32 -28 -13 -2 -33 -19 -47 -40 -17 -26 -32 -38 -48
-38 -16 0 -23 -6 -23 -20 0 -11 -4 -20 -9 -20 -4 0 -16 -21 -26 -47 -10 -27
-31 -75 -46 -108 -39 -85 -43 -110 -29 -170 l13 -53 -39 -63 c-21 -35 -51 -90
-67 -122 -18 -37 -40 -66 -65 -83 -165 -113 -233 -164 -262 -197 l-32 -37 17
-43 c29 -70 34 -116 19 -166 -8 -25 -14 -77 -14 -114 0 -61 -5 -77 -45 -155
l-44 -87 11 -98 12 -97 43 0 c24 0 51 -5 61 -10 9 -6 48 -24 86 -40 38 -17 90
-46 115 -64 51 -38 147 -86 169 -86 14 0 224 -67 307 -98 22 -8 49 -18 60 -21
40 -14 141 -66 205 -105 36 -21 88 -50 117 -62 49 -22 54 -23 89 -8 25 11 91
18 198 23 151 8 165 10 221 38 106 53 130 69 152 103 l23 33 -22 38 c-12 22
-32 46 -43 53 -12 8 -60 50 -107 94 -47 43 -125 105 -173 137 -51 34 -138 108
-210 179 -67 66 -163 153 -212 191 -50 39 -99 83 -108 98 -17 28 -16 29 8 55
13 15 41 58 62 97 20 38 62 102 93 143 32 41 75 99 97 130 131 187 165 232
244 316 90 98 141 183 180 303 11 32 44 108 74 168 68 134 123 191 222 227 36
12 75 30 87 39 21 17 22 19 11 114 -8 63 -8 106 -2 122 5 14 45 64 89 112 88
96 129 155 170 246 41 90 51 176 42 352 -7 136 -10 155 -29 172 -11 11 -31 37
-44 58 -22 36 -24 48 -24 188 0 176 -7 209 -71 353 -13 29 -24 55 -24 57 0 2
-22 49 -49 104 -27 55 -56 128 -65 164 -15 59 -15 73 0 176 16 105 15 114 -1
159 -10 26 -41 78 -68 117 -81 112 -119 196 -161 355 -36 136 -55 222 -81 365
-45 250 -53 288 -83 365 -13 36 -29 83 -34 105 -5 22 -23 60 -40 84 -29 40
-32 52 -32 120 -1 74 0 76 23 76 14 0 26 6 29 13 11 35 -65 177 -137 255 -26
29 -45 63 -59 109 -28 88 -53 137 -122 233 -32 44 -68 100 -81 125 -12 25 -30
56 -40 70 -9 14 -25 52 -34 85 -19 70 -46 146 -55 160 -4 6 -15 39 -24 75 -10
36 -35 95 -57 132 -82 141 -409 784 -402 792 24 24 202 -54 286 -126 34 -29
64 -56 67 -59 3 -3 16 -12 28 -18 42 -22 102 -83 102 -103 0 -15 5 -18 22 -13
16 6 20 4 16 -7 -3 -8 2 -25 11 -37 15 -20 21 -22 39 -12 27 15 32 14 32 -4 0
-18 40 -75 52 -75 4 0 37 -18 73 -40 36 -22 67 -40 69 -40 2 0 49 -29 103 -66
79 -52 387 -214 408 -214 3 0 28 -11 57 -25 28 -14 55 -25 59 -25 4 0 47 -18
94 -40 47 -22 88 -40 90 -40 2 0 39 -16 82 -36 43 -20 106 -49 141 -65 34 -16
79 -40 99 -54 21 -14 51 -25 68 -25 17 0 37 -6 43 -12 10 -10 18 -6 36 17 l24
30 13 -27 c7 -16 16 -28 21 -28 4 0 8 -9 8 -21 0 -11 5 -29 10 -39 8 -15 6
-21 -10 -30 -16 -8 -22 -7 -32 10 -14 21 -43 27 -53 10 -8 -14 21 -60 38 -60
29 -1 38 -16 26 -48 -9 -27 -7 -38 17 -82 18 -33 34 -50 46 -50 16 0 18 4 11
23 -4 12 -8 51 -8 87 0 59 2 64 24 70 21 5 22 7 8 18 -11 9 -13 24 -10 52 4
25 1 46 -7 55 -10 12 -9 20 4 40 9 13 16 31 16 40 0 8 5 15 11 15 6 0 9 -6 6
-14 -3 -8 0 -19 7 -25 16 -14 43 26 27 42 -6 6 -11 19 -11 29 0 10 -5 18 -12
18 -7 0 -23 11 -37 24 -15 13 -48 36 -76 51 -27 15 -60 36 -74 46 -13 10 -29
19 -35 19 -6 0 -30 15 -52 33 -23 17 -52 39 -64 47 -13 8 -43 32 -67 53 -27
22 -55 37 -71 37 -45 1 -116 42 -122 70 -5 22 -12 26 -60 30 -32 4 -55 11 -58
19 -2 7 -17 27 -32 44 -21 24 -36 31 -64 31 -20 0 -36 3 -36 7 0 4 -34 43 -75
86 -41 43 -75 87 -75 98 0 11 -16 31 -36 45 -19 14 -59 44 -89 68 -29 23 -58
42 -63 42 -5 0 -17 11 -26 25 -9 14 -21 25 -27 25 -6 0 -25 10 -42 23 -18 13
-49 32 -70 43 -21 10 -51 30 -67 44 -15 14 -40 34 -54 45 -14 11 -46 39 -70
63 -24 24 -62 55 -85 70 -22 15 -84 63 -138 107 -54 44 -124 98 -157 120 -32
22 -61 45 -63 52 -2 6 -16 14 -31 18 -15 4 -34 13 -42 20 -8 7 -42 24 -75 37
-42 17 -64 32 -72 51 -25 53 -39 76 -73 124 -25 34 -36 62 -40 98 -4 42 -10
53 -37 70 -18 11 -46 45 -63 77 -19 35 -43 64 -65 77 -22 13 -35 28 -35 41 0
12 -11 36 -25 54 -14 18 -25 36 -25 39 0 3 26 24 59 46 32 22 73 58 91 81 32
41 56 50 78 28 8 -8 79 -14 204 -19 264 -10 280 -14 443 -94 76 -37 164 -73
195 -79 38 -8 169 -9 420 -5 365 7 407 11 605 53 68 15 229 33 370 43 68 5
189 -6 325 -29 106 -18 152 -62 196 -183 9 -27 28 -67 41 -87 12 -21 23 -40
23 -44 0 -3 15 -23 33 -44 18 -21 42 -58 54 -82 38 -76 70 -152 83 -193 18
-59 41 -103 56 -109 14 -5 73 11 87 24 12 10 -10 86 -38 129 -44 70 -44 177
-1 201 20 10 31 8 73 -15 28 -14 57 -34 65 -43 23 -27 98 -152 98 -163 0 -5
-11 -26 -23 -47 -31 -48 -67 -145 -67 -178 0 -31 50 -84 79 -84 19 0 21 4 15
40 -6 38 -5 40 19 40 21 0 28 -7 38 -37 15 -50 27 -63 54 -63 22 0 22 2 18 89
-2 50 2 140 11 207 16 119 14 152 -10 189 -7 11 -18 43 -25 70 -22 89 -74 187
-123 233 -25 24 -46 49 -46 57 0 7 -30 39 -68 72 -100 87 -107 93 -142 124
-17 16 -36 29 -41 29 -6 0 -34 18 -64 40 -30 22 -57 40 -60 40 -3 0 -22 10
-43 23 -62 38 -104 46 -186 35 -112 -15 -551 24 -591 52 -5 4 -57 15 -115 24
-108 18 -185 36 -350 81 -52 15 -129 33 -170 42 -41 8 -95 19 -120 24 -25 5
-56 10 -69 9 -13 0 -39 9 -57 19 -23 14 -36 16 -40 9 -5 -7 -28 -8 -73 -2 -84
10 -200 9 -321 -3 -89 -9 -101 -8 -193 17 -72 20 -123 28 -196 29 -55 1 -114
6 -133 11 -18 6 -61 10 -95 10 -73 0 -87 14 -49 47 44 38 29 49 -76 57 -171
12 -226 30 -316 105 -77 64 -94 96 -90 167 3 49 5 54 25 54 48 0 20 48 -44 76
-54 23 -62 45 -29 81 34 36 33 65 -4 120 -33 49 -35 60 -18 98 9 21 9 31 -1
47 -9 15 -10 23 0 34 13 16 -2 64 -21 64 -5 0 -10 5 -10 11 0 21 -54 54 -130
80 -115 41 -128 47 -138 66 -11 21 -20 169 -10 178 3 3 -4 16 -17 29 -13 13
-25 41 -29 69 -5 29 -12 47 -21 47 -7 0 -33 19 -57 43 -55 56 -130 91 -172 82
-87 -19 -242 -21 -322 -5 -75 15 -86 15 -140 1z"/>
<path d="M13565 11218 c-22 -6 -65 -19 -96 -29 -31 -10 -64 -19 -73 -19 -21 0
-84 -67 -92 -97 -8 -30 -62 -63 -153 -93 -70 -23 -78 -28 -96 -66 -11 -22 -36
-55 -56 -72 -45 -40 -85 -114 -94 -177 -4 -27 -18 -82 -31 -122 -13 -40 -27
-99 -31 -133 -6 -57 -14 -72 -28 -50 -31 50 -289 -107 -595 -361 -484 -401
-762 -799 -855 -1219 -15 -70 -55 -198 -103 -330 -37 -102 -44 -166 -33 -279
6 -57 11 -127 11 -155 0 -34 9 -75 27 -117 14 -35 25 -76 24 -91 -1 -16 3 -28
7 -28 14 0 36 -106 28 -132 -43 -142 -57 -254 -63 -506 -6 -266 4 -330 59
-389 l31 -32 -41 -46 c-59 -68 -133 -285 -111 -327 13 -25 11 -31 -49 -114
-72 -101 -93 -164 -102 -319 -10 -144 -17 -184 -48 -241 -12 -22 -36 -77 -54
-123 -29 -74 -38 -87 -70 -104 -33 -16 -38 -24 -38 -54 0 -19 7 -57 16 -84 14
-43 15 -59 4 -127 -28 -167 -23 -198 25 -172 14 7 28 25 32 39 9 39 42 81 63
81 10 0 22 4 25 10 14 23 34 9 40 -27 3 -21 10 -60 16 -88 5 -27 14 -88 19
-134 6 -46 24 -126 41 -178 22 -65 29 -104 25 -126 -3 -18 -10 -65 -16 -106
-5 -40 -15 -80 -22 -89 -9 -10 -13 -50 -13 -121 0 -71 -6 -125 -17 -163 -10
-31 -22 -84 -27 -117 -6 -34 -28 -99 -50 -145 -21 -46 -51 -119 -66 -162 -15
-44 -35 -97 -45 -119 -33 -77 -38 -93 -45 -138 -4 -26 -2 -85 5 -133 l12 -86
-40 -41 c-22 -23 -52 -64 -67 -92 -46 -80 -114 -155 -186 -202 -37 -23 -70
-43 -73 -43 -4 0 -25 -11 -47 -26 -63 -40 -109 -64 -120 -64 -23 0 -140 -62
-190 -101 -30 -23 -89 -77 -132 -118 -54 -53 -106 -91 -170 -126 -82 -44 -95
-55 -116 -97 -20 -41 -29 -49 -65 -58 -75 -19 -110 -42 -168 -107 -40 -45 -58
-73 -58 -92 0 -32 -16 -51 -45 -51 -42 0 -80 -36 -115 -108 -27 -57 -39 -72
-57 -72 -12 0 -44 -11 -71 -25 -28 -14 -57 -25 -67 -25 -9 0 -40 -25 -70 -56
-29 -31 -71 -65 -93 -74 -33 -15 -45 -29 -72 -86 -17 -38 -49 -86 -70 -106
-23 -22 -40 -49 -42 -65 -2 -22 -13 -33 -53 -53 -38 -19 -55 -35 -72 -70 -25
-49 -29 -75 -13 -85 15 -9 13 -125 -2 -125 -7 0 -33 -20 -57 -45 l-44 -45 -24
22 c-28 27 -48 18 -72 -29 -16 -31 -43 -43 -99 -43 -14 0 -41 -5 -59 -12 -26
-9 -41 -9 -64 -1 -26 10 -35 9 -55 -4 -27 -17 -32 -51 -8 -60 10 -4 14 -13 10
-28 -9 -35 17 -37 56 -5 33 27 36 28 57 13 31 -21 19 -30 -95 -69 -53 -18
-102 -41 -109 -51 -46 -65 -49 -67 -121 -69 -38 0 -89 -7 -114 -13 -25 -7 -57
-15 -73 -18 -37 -7 -41 -17 -22 -53 13 -26 21 -30 56 -30 23 0 81 7 130 16 80
15 95 15 156 1 42 -9 94 -13 134 -10 44 3 83 0 119 -11 30 -9 70 -16 90 -16
20 0 41 -5 46 -10 10 -10 39 -4 99 19 54 22 95 31 133 31 39 0 49 6 121 75 43
41 83 75 88 75 6 0 22 -9 37 -21 26 -21 27 -21 48 -3 11 11 39 23 62 29 39 9
43 14 84 95 23 47 56 98 72 113 23 21 30 37 30 65 0 59 59 144 85 122 6 -5 28
-12 49 -14 20 -3 41 -8 46 -11 6 -4 23 3 39 14 16 12 39 21 51 21 12 0 50 20
84 43 59 42 64 44 138 45 117 2 148 24 213 151 26 48 47 77 64 84 14 6 53 30
86 52 33 23 71 46 85 51 105 44 328 165 357 194 36 36 78 94 103 143 9 19 26
31 54 38 44 12 48 13 269 85 l148 48 117 98 c93 78 123 109 146 154 23 46 36
59 73 75 24 10 55 19 68 19 22 0 49 18 122 84 18 16 44 52 57 80 13 28 49 82
81 121 140 170 235 354 378 735 83 221 107 299 121 397 10 76 17 97 47 139 19
27 45 76 58 109 52 137 104 256 111 253 18 -8 118 -126 127 -153 6 -16 17 -61
24 -100 6 -38 19 -88 27 -110 41 -104 174 -296 325 -467 76 -86 80 -93 78
-134 -1 -35 5 -55 37 -106 44 -69 47 -113 12 -153 -13 -15 -19 -42 -22 -107
-4 -79 -7 -89 -35 -121 -20 -23 -36 -56 -43 -90 -11 -48 -10 -57 5 -81 23 -35
12 -74 -61 -215 -30 -58 -54 -111 -54 -117 0 -31 -27 -66 -70 -94 -39 -25 -50
-39 -58 -72 -6 -23 -7 -49 -3 -57 5 -9 14 -46 21 -82 12 -59 11 -71 -4 -108
-24 -60 -31 -178 -16 -250 14 -66 11 -72 -67 -165 -18 -22 -33 -47 -33 -56 0
-9 -16 -47 -35 -86 -35 -69 -44 -117 -25 -129 6 -3 10 -21 10 -39 0 -25 -7
-38 -24 -50 -23 -15 -24 -17 -11 -43 8 -16 15 -36 15 -45 0 -10 22 -40 50 -68
40 -40 53 -63 70 -119 22 -72 57 -118 94 -126 12 -2 38 -7 59 -10 76 -12 218
-64 304 -111 203 -111 212 -114 328 -114 89 0 113 -4 160 -25 l56 -24 82 21
c45 11 107 23 137 25 30 3 59 9 65 14 5 5 18 9 30 9 32 1 102 36 114 59 9 16
8 28 -4 50 -19 39 -54 64 -200 148 -127 73 -451 277 -473 297 -7 7 -19 41 -26
76 -8 36 -20 91 -27 122 -12 55 -12 59 9 85 103 128 120 156 126 213 5 39 17
73 38 106 60 95 62 114 28 220 -16 52 -30 96 -30 99 0 3 33 38 73 78 55 56 79
89 102 142 33 79 81 159 126 210 28 32 30 38 20 66 -14 41 -14 326 0 366 5 17
32 49 59 72 101 85 126 196 69 301 l-32 57 42 42 43 43 -4 91 c-3 81 -7 100
-35 154 -20 37 -33 77 -33 98 0 60 -20 122 -66 203 -24 42 -44 83 -44 91 0 38
-107 322 -142 377 -26 42 -47 95 -64 161 -14 54 -35 123 -46 153 -11 30 -28
84 -37 120 -10 36 -23 74 -29 85 -6 11 -25 63 -41 115 -49 157 -78 226 -146
346 -49 85 -64 120 -59 138 3 14 -1 37 -11 56 -28 55 -7 185 70 430 15 47 30
99 35 115 10 36 57 176 140 415 53 150 145 429 211 634 14 43 19 89 19 168 0
59 3 108 7 108 4 0 17 -10 30 -22 21 -20 22 -26 16 -109 -7 -101 7 -186 42
-264 34 -74 44 -125 50 -271 8 -175 7 -171 55 -179 65 -11 65 -42 -1 -50 -67
-9 -87 -67 -38 -111 16 -14 23 -15 42 -5 30 16 130 42 137 35 3 -3 -17 -25
-43 -48 -45 -38 -48 -45 -45 -81 3 -37 6 -40 33 -41 17 -1 35 4 40 11 6 7 29
16 52 19 37 7 43 5 58 -18 24 -36 62 -35 77 2 7 15 20 36 29 47 9 11 19 40 22
65 2 25 14 72 27 105 16 44 22 81 22 140 0 44 5 88 10 98 6 12 6 23 -1 31 -7
8 -7 24 -1 47 6 18 10 48 10 64 0 17 5 36 10 41 13 13 -4 142 -19 157 -6 6
-11 21 -11 34 0 12 -6 26 -12 30 -21 13 -58 101 -58 136 0 20 -8 39 -20 49
-11 10 -22 30 -25 45 -4 15 -13 40 -21 55 -8 14 -14 33 -14 40 0 8 -9 23 -20
33 -11 10 -20 26 -20 35 0 9 -16 31 -35 50 -19 19 -35 39 -35 44 -1 14 -81 64
-145 91 -34 15 -50 28 -51 41 -1 10 -2 23 -3 29 -1 5 -6 4 -13 -3 -15 -15 -64
-16 -73 -2 -3 6 -17 10 -29 10 -13 0 -33 8 -45 17 -20 17 -21 32 -31 278 -6
143 -15 330 -20 415 -6 85 -10 176 -10 203 l0 48 38 -7 c20 -4 78 -17 127 -29
107 -27 168 -37 375 -64 181 -23 248 -42 311 -88 25 -18 49 -30 52 -27 10 10
47 -7 47 -22 0 -8 8 -18 18 -21 9 -4 23 -15 30 -25 17 -23 32 -15 32 17 0 29
26 24 36 -7 5 -16 12 -19 34 -14 24 4 29 1 34 -20 5 -18 11 -24 23 -20 8 4 22
1 30 -5 11 -9 16 -8 27 6 10 14 17 15 34 6 28 -15 32 -14 32 8 0 23 15 27 88
23 50 -4 55 -7 65 -33 7 -16 16 -28 22 -26 16 5 18 47 4 73 -10 20 -10 27 6
44 27 30 45 25 45 -13 0 -34 23 -77 42 -77 7 0 9 19 5 56 -7 67 9 61 21 -7 8
-44 24 -56 30 -22 7 32 19 35 74 21 29 -8 73 -13 98 -10 25 2 198 6 385 9 505
7 545 -2 604 -140 50 -115 99 -202 144 -254 42 -48 87 -142 87 -179 0 -8 8
-26 17 -40 14 -22 15 -27 2 -35 -31 -19 -38 -26 -77 -83 -33 -47 -39 -62 -31
-77 5 -11 14 -19 18 -19 5 0 18 -16 30 -35 17 -29 26 -35 53 -35 19 0 45 8 58
18 13 9 47 28 75 42 37 18 53 33 60 56 18 53 44 86 68 82 20 -3 22 -8 19 -58
-1 -30 -3 -80 -5 -110 l-2 -55 34 0 c52 0 73 36 74 122 0 49 5 71 16 79 11 9
15 34 16 100 1 49 -3 92 -8 95 -4 3 -12 21 -17 40 -34 133 -45 167 -63 193
-11 15 -38 63 -59 105 -22 42 -55 94 -72 116 -18 22 -39 51 -46 65 -34 65
-166 176 -276 231 -54 27 -74 31 -169 35 -59 3 -115 9 -125 14 -9 5 -26 6 -38
3 -26 -6 -150 16 -158 28 -3 5 -26 9 -52 9 -53 1 -242 51 -278 74 -13 9 -32
16 -43 16 -27 0 -224 66 -276 92 -22 12 -82 29 -134 39 -52 10 -99 23 -105 29
-5 5 -21 10 -34 10 -13 0 -33 5 -44 11 -12 7 -38 13 -57 15 -20 2 -49 6 -66 9
-71 12 -144 12 -202 -1 -67 -15 -291 -23 -310 -11 -6 4 -18 5 -25 2 -8 -3 -28
1 -44 10 -16 8 -36 15 -45 15 -9 0 -22 6 -29 14 -6 8 -17 13 -24 10 -7 -3 -62
19 -122 47 -120 58 -131 63 -254 108 -46 17 -87 36 -91 43 -4 6 -31 11 -60 12
l-53 1 -33 59 c-19 32 -32 61 -30 63 6 5 151 -24 203 -42 39 -13 56 -14 101
-4 90 18 122 36 140 77 27 59 62 92 99 92 34 0 84 33 84 56 0 8 20 27 45 42
33 20 53 41 71 78 26 53 80 111 126 134 33 16 53 44 61 85 3 17 10 59 17 95
12 70 32 110 54 110 17 0 74 64 87 97 13 34 -4 60 -43 68 -48 11 -52 15 -30
39 30 33 52 86 52 124 0 33 -50 144 -90 202 -9 14 -25 43 -36 65 -36 79 -125
200 -157 214 -18 7 -41 18 -52 24 -75 40 -217 107 -255 120 -25 9 -74 28 -110
42 -61 26 -75 27 -260 30 -107 1 -213 -2 -235 -7z m1435 -2678 c0 -5 -7 -10
-15 -10 -8 0 -15 5 -15 10 0 6 7 10 15 10 8 0 15 -4 15 -10z"/>
</g>
</svg>
