<?xml version="1.0" standalone="no"?>
<!DOCTYPE svg PUBLIC "-//W3C//DTD SVG 20010904//EN"
"http://www.w3.org/TR/2001/REC-SVG-20010904/DTD/svg10.dtd">
<svg version="1.0" xmlns="http://www.w3.org/2000/svg"
width="52.184071pt" height="36.000000pt" viewBox="0 0 52.184071 36.000000"
preserveAspectRatio="xMidYMid meet">
<g transform="translate(0.000000,36.000000) scale(0.006372,-0.006372)"
fill="#4d4d4d" stroke="none">
<path d="M1128 5552 c-59 -36 -57 -103 5 -136 18 -9 50 -30 72 -47 109 -81
165 -122 215 -156 30 -21 63 -45 73 -54 11 -10 37 -94 73 -235 85 -339 393
-1561 513 -2037 l108 -428 -77 -77 c-42 -42 -115 -123 -162 -178 -48 -56 -172
-196 -275 -311 -221 -246 -263 -296 -289 -343 -17 -31 -19 -62 -22 -298 l-3
-262 -51 0 c-44 0 -54 -4 -84 -34 -29 -29 -34 -41 -34 -79 0 -29 7 -53 19 -68
l18 -23 -41 -27 c-59 -40 -68 -49 -109 -102 -43 -57 -77 -158 -77 -232 0 -106
56 -228 138 -301 15 -13 56 -39 92 -56 59 -30 72 -33 160 -33 88 0 101 3 160
33 36 17 77 43 92 56 82 73 138 195 138 301 0 111 -63 241 -148 307 l-35 28
2003 0 2003 0 -35 -27 c-85 -67 -148 -197 -148 -308 0 -106 56 -228 138 -301
15 -13 56 -39 92 -56 59 -30 72 -33 160 -33 88 0 101 3 160 33 36 17 77 43 92
56 82 73 138 195 138 301 0 111 -63 241 -148 308 l-35 27 74 0 c91 -1 181 -20
342 -74 43 -14 98 -26 123 -26 39 0 51 5 80 34 29 29 34 41 34 79 0 67 -31 99
-122 127 -40 12 -84 26 -98 32 -14 6 -41 15 -60 20 -143 38 -109 37 -1523 38
l-1368 0 15 22 c9 12 16 42 16 66 0 37 -6 50 -34 78 l-34 34 -246 0 c-243 0
-247 0 -285 24 -81 51 -99 90 -84 181 7 45 16 55 489 510 505 487 584 568 584
598 0 15 6 27 13 27 10 0 535 43 2027 165 168 14 386 32 484 40 175 14 180 15
208 42 l28 29 41 659 c22 363 42 675 45 693 4 29 8 32 38 32 52 0 76 34 83
116 8 104 1 108 -218 134 -95 12 -226 27 -289 35 -63 8 -288 34 -500 59 -212
25 -538 64 -725 86 -557 67 -1076 128 -1305 155 -118 14 -267 32 -330 39 -63
8 -161 20 -217 27 -57 7 -103 14 -103 16 0 1 18 47 41 100 145 344 141 334
129 363 -7 16 -24 34 -40 40 -38 16 -83 -8 -100 -52 -16 -40 -182 -432 -184
-435 -2 -2 -118 11 -581 67 -426 51 -665 80 -669 80 -3 0 -8 16 -12 37 -10 55
-191 243 -314 326 -52 35 -136 91 -186 125 -50 34 -100 62 -110 61 -10 0 -31
-8 -46 -17z m893 -756 c70 -8 230 -27 358 -42 l231 -28 14 -50 c8 -28 29 -109
45 -181 17 -71 42 -173 54 -225 22 -90 23 -98 8 -131 l-16 -36 -75 18 c-41 10
-167 41 -280 68 -421 102 -377 87 -388 129 -44 167 -122 477 -122 488 0 10 7
13 23 9 12 -3 79 -11 148 -19z m938 -112 c3 -3 -5 -28 -18 -57 -12 -28 -39
-92 -59 -141 l-36 -89 -38 154 c-21 85 -38 154 -38 154 -1 3 186 -18 189 -21z
m440 -60 c5 -5 13 -36 19 -69 21 -114 73 -390 92 -485 10 -52 28 -147 40 -210
11 -63 25 -135 30 -160 5 -25 19 -97 30 -160 12 -63 30 -158 40 -210 10 -52
25 -131 34 -175 8 -44 29 -156 47 -248 17 -92 30 -169 28 -171 -4 -4 -58 -10
-339 -36 -58 -6 -117 -13 -132 -15 -20 -3 -28 0 -28 10 0 8 -38 169 -84 357
-47 189 -106 431 -132 538 -26 107 -69 281 -95 385 l-47 190 105 244 c57 134
106 247 108 251 5 9 274 -25 284 -36z m401 -40 c273 -32 365 -45 372 -52 6 -7
27 -166 138 -1077 28 -225 57 -466 66 -534 8 -68 14 -124 12 -125 -4 -3 -437
-46 -459 -46 -11 0 -18 12 -22 33 -3 17 -13 69 -21 115 -9 45 -22 117 -30 160
-8 42 -26 136 -40 207 -24 126 -65 339 -147 770 -22 116 -44 230 -49 255 -5
25 -19 97 -30 160 -11 63 -23 126 -26 139 -6 27 -27 27 236 -5z m795 -94 c83
-11 180 -22 216 -26 36 -3 71 -9 78 -13 11 -7 31 -324 75 -1201 9 -168 17
-326 19 -352 l4 -46 -71 -7 c-39 -3 -138 -13 -219 -21 -82 -9 -150 -14 -152
-12 -3 2 -25 170 -50 374 -25 203 -54 441 -65 529 -11 88 -33 273 -50 410 -16
138 -32 270 -35 295 -3 25 -8 58 -11 73 l-6 29 59 -7 c32 -4 126 -15 208 -25z
m973 -115 c57 -6 72 -10 73 -24 3 -101 36 -1426 35 -1428 -2 -2 -172 -20 -360
-38 -108 -10 -171 -13 -175 -6 -3 5 -23 339 -44 743 -21 403 -41 751 -43 774
l-6 40 224 -27 c122 -15 256 -30 296 -34z m402 -50 c69 -8 181 -21 250 -29 69
-8 172 -20 229 -27 l104 -13 -6 -105 c-14 -260 -70 -1146 -72 -1149 -2 -2 -50
-8 -107 -13 -56 -5 -201 -19 -320 -32 l-217 -22 -5 70 c-3 38 -10 304 -16 590
-6 286 -13 572 -16 636 l-6 116 28 -3 c16 -2 85 -10 154 -19z m-3630 -285
c118 -29 236 -57 263 -62 29 -7 47 -16 47 -25 0 -8 -33 -92 -74 -186 -41 -95
-102 -237 -136 -317 -34 -80 -79 -186 -101 -236 -21 -50 -39 -96 -39 -103 0
-6 -4 -11 -8 -11 -5 0 -20 46 -34 103 -23 90 -90 355 -201 783 l-34 131 51
-12 c28 -7 148 -36 266 -65z m504 -260 c19 -80 72 -293 116 -475 44 -181 97
-396 117 -478 20 -81 34 -150 30 -153 -6 -6 -688 -76 -694 -71 -1 2 -17 61
-34 131 l-32 127 46 107 c25 59 101 235 167 392 193 454 243 570 246 567 1 -1
18 -67 38 -147z m561 -1478 c-38 -37 -196 -189 -350 -338 -154 -149 -295 -284
-313 -299 -54 -45 -109 -139 -126 -216 -24 -104 -21 -169 12 -242 33 -71 118
-169 171 -197 36 -19 32 -19 -586 -20 l-623 0 1 213 c1 116 4 222 7 234 6 20
84 110 482 556 69 77 154 173 190 214 40 46 72 73 84 73 18 0 233 18 941 79
55 4 118 9 140 9 l40 2 -70 -68z"/>
</g>
</svg>
