<?xml version="1.0" encoding="UTF-8" standalone="no"?>
<svg xmlns="http://www.w3.org/2000/svg" viewBox="-0.75 -0.5 26.75 39" version="1.1">
<defs><radialGradient r="9.9625" gradientTransform="matrix(1.1,0.0046,-0.005,1.104,-1.18,-0.06)" cx="12.5" cy="2.33" gradientUnits="userSpaceOnUse" id="rg"><stop offset="0" style="stop-color:#990;stop-opacity:0" id="stop3773" /><stop offset="1" style="stop-color:#cccc00" id="stop3775" /></radialGradient></defs>
<path style="fill:#aaaaaa;stroke:#fff;stroke-width:2.5" d="M12.5 1.0C5.883 1.0 0.52 6.0 0.52 13.0C0.52 18.0 3.293 22.0 7.291 24.0C7.291 24.0 12.5 38.0 12.5 38.0C14.44 33.0 16.19 28.0 17.9 24.0C21.79 22.0 24.48 18.0 24.48 13.0C24.48 6.0 19.12 1.0 12.5 1.0C12.5 1.0 12.5 1.0 12.5 1.0"/>
<path style="fill:url(#rg)" d="M22.94 12.7C22.94 18.47 18.27 23.14 12.5 23.14C6.727 23.14 2.049 18.47 2.049 12.7C2.049 6.925 6.727 2.248 12.5 2.248C18.27 2.248 22.94 6.925 22.94 12.7C22.94 12.7 22.94 12.7 22.94 12.7"/>
</svg>
