<?xml version="1.0"?>
<svg xmlns:rdf="http://www.w3.org/1999/02/22-rdf-syntax-ns#" xmlns="http://www.w3.org/2000/svg" xmlns:cc="http://creativecommons.org/ns#" xmlns:xlink="http://www.w3.org/1999/xlink" xmlns:dc="http://purl.org/dc/elements/1.1/" xmlns:svg="http://www.w3.org/2000/svg" id="svg2965" viewBox="0 0 166.37 168.47" version="1.1">
<defs id="defs2967">
<linearGradient id="linearGradient5305" y2="-148.13" gradientUnits="userSpaceOnUse" y1="-298.54" x2="387.75" x1="379.92">
<stop id="stop3954-0" stop-color="#0146a8" offset="0"/>
<stop id="stop3956-3" stop-color="#0146a8" stop-opacity="0" offset="1"/>
</linearGradient>
<linearGradient id="linearGradient5307" x1="381.89" gradientUnits="userSpaceOnUse" y1="-310.05" gradientTransform="matrix(.93571 0 0 .97143 -188.14 661.08)" x2="387.75" y2="-147.97">
<stop id="stop3919-7" stop-color="#edf4fd" stop-opacity=".52846" offset="0"/>
<stop id="stop3921-5" stop-color="#175bb3" stop-opacity="0" offset="1"/>
</linearGradient>
</defs>
<g id="layer1" transform="translate(-381.54 -405.12)">
<g id="g5286" stroke-width="1.9" transform="matrix(.75853 0 0 .75853 332.22 142.56)">
<path id="path3948" transform="matrix(1 0 0 1.0126 -213.07 668.29)" fill="#103683" d="m497.42-208.45c0 60.568-49.1 109.67-109.67 109.67-60.568 0-109.67-49.1-109.67-109.67 0-60.568 49.1-109.67 109.67-109.67 60.568 0 109.67 49.1 109.67 109.67z"/>
<g id="g5265">
<path id="path3950" transform="matrix(.93571 0 0 .97143 -188.14 661.08)" fill="url(#linearGradient5305)" d="m497.42-208.45c0 60.568-49.1 109.67-109.67 109.67-60.568 0-109.67-49.1-109.67-109.67 0-60.568 49.1-109.67 109.67-109.67 60.568 0 109.67 49.1 109.67 109.67z"/>
<path id="path3984" transform="matrix(.87196 0 0 .82513 177 267.68)" fill="#eee" d="m29.357 296.26c0 9.0245-7.3158 16.34-16.34 16.34-9.0245 0-16.34-7.3158-16.34-16.34 0-9.0245 7.3158-16.34 16.34-16.34 9.0245 0 16.34 7.3158 16.34 16.34z"/>
<path id="path3986" transform="matrix(.87196 0 0 .82513 121.46 267.22)" fill="#eee" d="m29.357 296.26c0 9.0245-7.3158 16.34-16.34 16.34-9.0245 0-16.34-7.3158-16.34-16.34 0-9.0245 7.3158-16.34 16.34-16.34 9.0245 0 16.34 7.3158 16.34 16.34z"/>
<path id="rect3988" fill="#eee" d="m229.97 426.29c-3.9917-0.0169-8.3603 2.4436-10.654 6.2916l-23.87 40.019h-72.209c-5.7968 0-10.464 4.2749-10.464 9.5921 0 5.3173 4.6667 9.5921 10.464 9.5921h73.244c2.4007 0 4.5871-0.74746 6.3489-1.9855 1.9049-1.0921 3.6057-2.6649 4.7685-4.6156l24.66-41.385h20.818c5.7479 0 10.382-3.8788 10.382-8.6896 0-4.8109-4.6339-8.6896-10.382-8.6896h-21.744c-0.45155-0.0706-0.89735-0.12696-1.3624-0.12893z"/>
<g id="g4031" fill="#eee" transform="matrix(.87196 0 0 .82513 98.274 -132.03)">
<path id="path4003" transform="matrix(.84615 0 0 .84615 6.8173 320.74)" d="m29.911 462.71c0 7.9538-6.4478 14.402-14.402 14.402-7.9538 0-14.402-6.4478-14.402-14.402 0-7.9538 6.4478-14.402 14.402-14.402 7.9538 0 14.402 6.4478 14.402 14.402z"/>
<path id="path4011" transform="matrix(.84615 0 0 .84615 34.47 320.74)" d="m29.911 462.71c0 7.9538-6.4478 14.402-14.402 14.402-7.9538 0-14.402-6.4478-14.402-14.402 0-7.9538 6.4478-14.402 14.402-14.402 7.9538 0 14.402 6.4478 14.402 14.402z"/>
<path id="path4013" transform="matrix(.84615 0 0 .84615 62.123 320.74)" d="m29.911 462.71c0 7.9538-6.4478 14.402-14.402 14.402-7.9538 0-14.402-6.4478-14.402-14.402 0-7.9538 6.4478-14.402 14.402-14.402 7.9538 0 14.402 6.4478 14.402 14.402z"/>
<path id="path4029" transform="matrix(.84615 0 0 .84615 89.776 320.74)" d="m29.911 462.71c0 7.9538-6.4478 14.402-14.402 14.402-7.9538 0-14.402-6.4478-14.402-14.402 0-7.9538 6.4478-14.402 14.402-14.402 7.9538 0 14.402 6.4478 14.402 14.402z"/>
</g>
<g id="g4037" fill="#eee" transform="matrix(.87196 0 0 .82513 82.211 -157.5)">
<path id="path4039" transform="matrix(.84615 0 0 .84615 6.8173 320.74)" d="m29.911 462.71c0 7.9538-6.4478 14.402-14.402 14.402-7.9538 0-14.402-6.4478-14.402-14.402 0-7.9538 6.4478-14.402 14.402-14.402 7.9538 0 14.402 6.4478 14.402 14.402z"/>
<path id="path4041" transform="matrix(.84615 0 0 .84615 34.47 320.74)" d="m29.911 462.71c0 7.9538-6.4478 14.402-14.402 14.402-7.9538 0-14.402-6.4478-14.402-14.402 0-7.9538 6.4478-14.402 14.402-14.402 7.9538 0 14.402 6.4478 14.402 14.402z"/>
<path id="path4043" transform="matrix(.84615 0 0 .84615 62.123 320.74)" d="m29.911 462.71c0 7.9538-6.4478 14.402-14.402 14.402-7.9538 0-14.402-6.4478-14.402-14.402 0-7.9538 6.4478-14.402 14.402-14.402 7.9538 0 14.402 6.4478 14.402 14.402z"/>
<path id="path4045" transform="matrix(.84615 0 0 .84615 89.776 320.74)" d="m29.911 462.71c0 7.9538-6.4478 14.402-14.402 14.402-7.9538 0-14.402-6.4478-14.402-14.402 0-7.9538 6.4478-14.402 14.402-14.402 7.9538 0 14.402 6.4478 14.402 14.402z"/>
</g>
<path id="path3960" fill="url(#linearGradient5307)" d="m174.68 352.04c-56.674 0-102.62 47.725-102.62 106.56 0 3.7524 0.1979 7.4415 0.5625 11.094 50.067 18.726 126.58 32.369 204.69-10.594 0.00074-0.16695 0-0.33287 0-0.5 0-58.837-45.951-106.56-102.62-106.56z"/>
</g>
</g>
</g>
</svg>
